$MeshFormat
4.1 0 8
$EndMeshFormat
$PhysicalNames
3
0 2 "center"
0 3 "ext"
1 4 "line"
$EndPhysicalNames
$Entities
2 1 0 0
1 0 0 0 1 2 
2 40 0 0 1 3 
1 0 0 0 40 0 0 1 4 2 1 -2 
$EndEntities
$Nodes
3 1497 1 1497
0 1 0 1
1
0 0 0
0 2 0 1
2
40 0 0
1 1 0 1495
3
4
5
6
7
8
9
10
11
12
13
14
15
16
17
18
19
20
21
22
23
24
25
26
27
28
29
30
31
32
33
34
35
36
37
38
39
40
41
42
43
44
45
46
47
48
49
50
51
52
53
54
55
56
57
58
59
60
61
62
63
64
65
66
67
68
69
70
71
72
73
74
75
76
77
78
79
80
81
82
83
84
85
86
87
88
89
90
91
92
93
94
95
96
97
98
99
100
101
102
103
104
105
106
107
108
109
110
111
112
113
114
115
116
117
118
119
120
121
122
123
124
125
126
127
128
129
130
131
132
133
134
135
136
137
138
139
140
141
142
143
144
145
146
147
148
149
150
151
152
153
154
155
156
157
158
159
160
161
162
163
164
165
166
167
168
169
170
171
172
173
174
175
176
177
178
179
180
181
182
183
184
185
186
187
188
189
190
191
192
193
194
195
196
197
198
199
200
201
202
203
204
205
206
207
208
209
210
211
212
213
214
215
216
217
218
219
220
221
222
223
224
225
226
227
228
229
230
231
232
233
234
235
236
237
238
239
240
241
242
243
244
245
246
247
248
249
250
251
252
253
254
255
256
257
258
259
260
261
262
263
264
265
266
267
268
269
270
271
272
273
274
275
276
277
278
279
280
281
282
283
284
285
286
287
288
289
290
291
292
293
294
295
296
297
298
299
300
301
302
303
304
305
306
307
308
309
310
311
312
313
314
315
316
317
318
319
320
321
322
323
324
325
326
327
328
329
330
331
332
333
334
335
336
337
338
339
340
341
342
343
344
345
346
347
348
349
350
351
352
353
354
355
356
357
358
359
360
361
362
363
364
365
366
367
368
369
370
371
372
373
374
375
376
377
378
379
380
381
382
383
384
385
386
387
388
389
390
391
392
393
394
395
396
397
398
399
400
401
402
403
404
405
406
407
408
409
410
411
412
413
414
415
416
417
418
419
420
421
422
423
424
425
426
427
428
429
430
431
432
433
434
435
436
437
438
439
440
441
442
443
444
445
446
447
448
449
450
451
452
453
454
455
456
457
458
459
460
461
462
463
464
465
466
467
468
469
470
471
472
473
474
475
476
477
478
479
480
481
482
483
484
485
486
487
488
489
490
491
492
493
494
495
496
497
498
499
500
501
502
503
504
505
506
507
508
509
510
511
512
513
514
515
516
517
518
519
520
521
522
523
524
525
526
527
528
529
530
531
532
533
534
535
536
537
538
539
540
541
542
543
544
545
546
547
548
549
550
551
552
553
554
555
556
557
558
559
560
561
562
563
564
565
566
567
568
569
570
571
572
573
574
575
576
577
578
579
580
581
582
583
584
585
586
587
588
589
590
591
592
593
594
595
596
597
598
599
600
601
602
603
604
605
606
607
608
609
610
611
612
613
614
615
616
617
618
619
620
621
622
623
624
625
626
627
628
629
630
631
632
633
634
635
636
637
638
639
640
641
642
643
644
645
646
647
648
649
650
651
652
653
654
655
656
657
658
659
660
661
662
663
664
665
666
667
668
669
670
671
672
673
674
675
676
677
678
679
680
681
682
683
684
685
686
687
688
689
690
691
692
693
694
695
696
697
698
699
700
701
702
703
704
705
706
707
708
709
710
711
712
713
714
715
716
717
718
719
720
721
722
723
724
725
726
727
728
729
730
731
732
733
734
735
736
737
738
739
740
741
742
743
744
745
746
747
748
749
750
751
752
753
754
755
756
757
758
759
760
761
762
763
764
765
766
767
768
769
770
771
772
773
774
775
776
777
778
779
780
781
782
783
784
785
786
787
788
789
790
791
792
793
794
795
796
797
798
799
800
801
802
803
804
805
806
807
808
809
810
811
812
813
814
815
816
817
818
819
820
821
822
823
824
825
826
827
828
829
830
831
832
833
834
835
836
837
838
839
840
841
842
843
844
845
846
847
848
849
850
851
852
853
854
855
856
857
858
859
860
861
862
863
864
865
866
867
868
869
870
871
872
873
874
875
876
877
878
879
880
881
882
883
884
885
886
887
888
889
890
891
892
893
894
895
896
897
898
899
900
901
902
903
904
905
906
907
908
909
910
911
912
913
914
915
916
917
918
919
920
921
922
923
924
925
926
927
928
929
930
931
932
933
934
935
936
937
938
939
940
941
942
943
944
945
946
947
948
949
950
951
952
953
954
955
956
957
958
959
960
961
962
963
964
965
966
967
968
969
970
971
972
973
974
975
976
977
978
979
980
981
982
983
984
985
986
987
988
989
990
991
992
993
994
995
996
997
998
999
1000
1001
1002
1003
1004
1005
1006
1007
1008
1009
1010
1011
1012
1013
1014
1015
1016
1017
1018
1019
1020
1021
1022
1023
1024
1025
1026
1027
1028
1029
1030
1031
1032
1033
1034
1035
1036
1037
1038
1039
1040
1041
1042
1043
1044
1045
1046
1047
1048
1049
1050
1051
1052
1053
1054
1055
1056
1057
1058
1059
1060
1061
1062
1063
1064
1065
1066
1067
1068
1069
1070
1071
1072
1073
1074
1075
1076
1077
1078
1079
1080
1081
1082
1083
1084
1085
1086
1087
1088
1089
1090
1091
1092
1093
1094
1095
1096
1097
1098
1099
1100
1101
1102
1103
1104
1105
1106
1107
1108
1109
1110
1111
1112
1113
1114
1115
1116
1117
1118
1119
1120
1121
1122
1123
1124
1125
1126
1127
1128
1129
1130
1131
1132
1133
1134
1135
1136
1137
1138
1139
1140
1141
1142
1143
1144
1145
1146
1147
1148
1149
1150
1151
1152
1153
1154
1155
1156
1157
1158
1159
1160
1161
1162
1163
1164
1165
1166
1167
1168
1169
1170
1171
1172
1173
1174
1175
1176
1177
1178
1179
1180
1181
1182
1183
1184
1185
1186
1187
1188
1189
1190
1191
1192
1193
1194
1195
1196
1197
1198
1199
1200
1201
1202
1203
1204
1205
1206
1207
1208
1209
1210
1211
1212
1213
1214
1215
1216
1217
1218
1219
1220
1221
1222
1223
1224
1225
1226
1227
1228
1229
1230
1231
1232
1233
1234
1235
1236
1237
1238
1239
1240
1241
1242
1243
1244
1245
1246
1247
1248
1249
1250
1251
1252
1253
1254
1255
1256
1257
1258
1259
1260
1261
1262
1263
1264
1265
1266
1267
1268
1269
1270
1271
1272
1273
1274
1275
1276
1277
1278
1279
1280
1281
1282
1283
1284
1285
1286
1287
1288
1289
1290
1291
1292
1293
1294
1295
1296
1297
1298
1299
1300
1301
1302
1303
1304
1305
1306
1307
1308
1309
1310
1311
1312
1313
1314
1315
1316
1317
1318
1319
1320
1321
1322
1323
1324
1325
1326
1327
1328
1329
1330
1331
1332
1333
1334
1335
1336
1337
1338
1339
1340
1341
1342
1343
1344
1345
1346
1347
1348
1349
1350
1351
1352
1353
1354
1355
1356
1357
1358
1359
1360
1361
1362
1363
1364
1365
1366
1367
1368
1369
1370
1371
1372
1373
1374
1375
1376
1377
1378
1379
1380
1381
1382
1383
1384
1385
1386
1387
1388
1389
1390
1391
1392
1393
1394
1395
1396
1397
1398
1399
1400
1401
1402
1403
1404
1405
1406
1407
1408
1409
1410
1411
1412
1413
1414
1415
1416
1417
1418
1419
1420
1421
1422
1423
1424
1425
1426
1427
1428
1429
1430
1431
1432
1433
1434
1435
1436
1437
1438
1439
1440
1441
1442
1443
1444
1445
1446
1447
1448
1449
1450
1451
1452
1453
1454
1455
1456
1457
1458
1459
1460
1461
1462
1463
1464
1465
1466
1467
1468
1469
1470
1471
1472
1473
1474
1475
1476
1477
1478
1479
1480
1481
1482
1483
1484
1485
1486
1487
1488
1489
1490
1491
1492
1493
1494
1495
1496
1497
0.001259207979934462 0 0
0.002518415959868925 0 0
0.003777623939803387 0 0
0.00503683191973785 0 0
0.00629603989967231 0 0
0.007555247879606773 0 0
0.008814455859541236 0 0
0.0100736638394757 0 0
0.01136426692765623 0 0
0.01265487001583676 0 0
0.01394547310401729 0 0
0.01523607619219782 0 0
0.01652667928037835 0 0
0.01781728236855889 0 0
0.01910788545673942 0 0
0.02039848854491995 0 0
0.02172126904346632 0 0
0.02304404954201269 0 0
0.02436683004055906 0 0
0.02568961053910543 0 0
0.0270123910376518 0 0
0.02833517153619816 0 0
0.02965795203474453 0 0
0.0309807325332909 0 0
0.03233649325389405 0 0
0.03369225397449721 0 0
0.03504801469510036 0 0
0.03640377541570351 0 0
0.03775953613630666 0 0
0.03911529685690981 0 0
0.04047105757751296 0 0
0.04182681829811612 0 0
0.04321638108296683 0 0
0.04460594386781752 0 0
0.04599550665266823 0 0
0.04738506943751894 0 0
0.04877463222236965 0 0
0.05016419500722036 0 0
0.05155375779207107 0 0
0.05294332057692177 0 0
0.05436752859472718 0 0
0.05579173661253257 0 0
0.05721594463033796 0 0
0.05864015264814336 0 0
0.06006436066594875 0 0
0.06148856868375414 0 0
0.06291277670155954 0 0
0.06433698471936493 0 0
0.06579670144540496 0 0
0.06725641817144498 0 0
0.06871613489748502 0 0
0.07017585162352503 0 0
0.07163556834956505 0 0
0.07309528507560509 0 0
0.07455500180164511 0 0
0.07601471852768514 0 0
0.07751082931640318 0 0
0.07900694010512122 0 0
0.08050305089383927 0 0
0.08199916168255732 0 0
0.08349527247127536 0 0
0.08499138325999341 0 0
0.08648749404871145 0 0
0.08798360483742948 0 0
0.08951701706020171 0 0
0.09105042928297392 0 0
0.09258384150574615 0 0
0.09411725372851837 0 0
0.0956506659512906 0 0
0.09718407817406281 0 0
0.09871749039683504 0 0
0.1002509026196072 0 0
0.1018225465893826 0 0
0.1033941905591579 0 0
0.1049658345289332 0 0
0.1065374784987086 0 0
0.1081091224684839 0 0
0.1096807664382592 0 0
0.1112524104080346 0 0
0.1128240543778099 0 0
0.1144348831865261 0 0
0.1160457119952423 0 0
0.1176565408039585 0 0
0.1192673696126747 0 0
0.1208781984213909 0 0
0.1224890272301071 0 0
0.1240998560388233 0 0
0.1257106848475395 0 0
0.1273616754269456 0 0
0.1290126660063517 0 0
0.1306636565857578 0 0
0.1323146471651638 0 0
0.1339656377445699 0 0
0.1356166283239759 0 0
0.137267618903382 0 0
0.1389186094827881 0 0
0.1406107624131949 0 0
0.1423029153436017 0 0
0.1439950682740085 0 0
0.1456872212044153 0 0
0.1473793741348221 0 0
0.1490715270652289 0 0
0.1507636799956357 0 0
0.1524558329260425 0 0
0.1541901753553333 0 0
0.1559245177846242 0 0
0.1576588602139151 0 0
0.159393202643206 0 0
0.1611275450724969 0 0
0.1628618875017878 0 0
0.1645962299310788 0 0
0.1663305723603696 0 0
0.1681081564484097 0 0
0.1698857405364496 0 0
0.1716633246244896 0 0
0.1734409087125297 0 0
0.1752184928005697 0 0
0.1769960768886097 0 0
0.1787736609766497 0 0
0.1805512450646897 0 0
0.1823731480452613 0 0
0.1841950510258328 0 0
0.1860169540064044 0 0
0.187838856986976 0 0
0.1896607599675476 0 0
0.1914826629481192 0 0
0.1933045659286908 0 0
0.1951264689092624 0 0
0.1969937963172872 0 0
0.1988611237253121 0 0
0.2007284511333369 0 0
0.2025957785413617 0 0
0.2044631059493865 0 0
0.2063304333574114 0 0
0.2081977607654362 0 0
0.2100650881734611 0 0
0.2119789718248993 0 0
0.2138928554763374 0 0
0.2158067391277756 0 0
0.2177206227792137 0 0
0.2196345064306518 0 0
0.22154839008209 0 0
0.2234622737335281 0 0
0.2253761573849662 0 0
0.227337759258905 0 0
0.2292993611328437 0 0
0.2312609630067824 0 0
0.2332225648807212 0 0
0.23518416675466 0 0
0.2371457686285987 0 0
0.2391073705025374 0 0
0.2410689723764762 0 0
0.2430794815137656 0 0
0.245089990651055 0 0
0.2471004997883444 0 0
0.2491110089256338 0 0
0.2511215180629232 0 0
0.2531320272002125 0 0
0.255142536337502 0 0
0.2571530454747915 0 0
0.2592136810952433 0 0
0.2612743167156953 0 0
0.2633349523361473 0 0
0.2653955879565992 0 0
0.2674562235770512 0 0
0.2695168591975033 0 0
0.2715774948179553 0 0
0.2736381304384073 0 0
0.2757501420860671 0 0
0.2778621537337269 0 0
0.2799741653813866 0 0
0.2820861770290464 0 0
0.2841981886767062 0 0
0.286310200324366 0 0
0.2884222119720258 0 0
0.2905342236196856 0 0
0.2926988934132586 0 0
0.2948635632068315 0 0
0.2970282330004045 0 0
0.2991929027939775 0 0
0.3013575725875505 0 0
0.3035222423811234 0 0
0.3056869121746964 0 0
0.3078515819682693 0 0
0.3100702213047438 0 0
0.3122888606412181 0 0
0.3145074999776925 0 0
0.3167261393141669 0 0
0.3189447786506413 0 0
0.3211634179871158 0 0
0.3233820573235902 0 0
0.3256006966600645 0 0
0.3278746519816864 0 0
0.3301486073033082 0 0
0.3324225626249299 0 0
0.3346965179465516 0 0
0.3369704732681734 0 0
0.3392444285897951 0 0
0.3415183839114169 0 0
0.3437923392330388 0 0
0.346122989875295 0 0
0.3484536405175513 0 0
0.3507842911598076 0 0
0.353114941802064 0 0
0.3554455924443203 0 0
0.3577762430865766 0 0
0.360106893728833 0 0
0.3624375443710893 0 0
0.3648263033820838 0 0
0.3672150623930783 0 0
0.3696038214040729 0 0
0.3719925804150675 0 0
0.374381339426062 0 0
0.3767700984370564 0 0
0.3791588574480509 0 0
0.3815476164590454 0 0
0.3839959324161347 0 0
0.3864442483732242 0 0
0.3888925643303137 0 0
0.391340880287403 0 0
0.3937891962444924 0 0
0.3962375122015818 0 0
0.3986858281586713 0 0
0.4011341441157607 0 0
0.4036435027654153 0 0
0.4061528614150698 0 0
0.4086622200647243 0 0
0.4111715787143788 0 0
0.4136809373640333 0 0
0.4161902960136879 0 0
0.4186996546633425 0 0
0.421209013312997 0 0
0.4237809357631222 0 0
0.4263528582132474 0 0
0.4289247806633726 0 0
0.4314967031134978 0 0
0.4340686255636231 0 0
0.4366405480137484 0 0
0.4392124704638736 0 0
0.4417843929139988 0 0
0.4444204395155557 0 0
0.4470564861171125 0 0
0.4496925327186695 0 0
0.4523285793202264 0 0
0.4549646259217833 0 0
0.4576006725233403 0 0
0.4602367191248973 0 0
0.4628727657264541 0 0
0.4655745347739187 0 0
0.4682763038213832 0 0
0.4709780728688478 0 0
0.4736798419163123 0 0
0.4763816109637769 0 0
0.4790833800112413 0 0
0.4817851490587057 0 0
0.4844869181061702 0 0
0.4872560489089969 0 0
0.4900251797118236 0 0
0.4927943105146503 0 0
0.495563441317477 0 0
0.4983325721203037 0 0
0.5011017029231304 0 0
0.503870833725957 0 0
0.5066399645287837 0 0
0.5094781358372915 0 0
0.5123163071457991 0 0
0.515154478454307 0 0
0.5179926497628147 0 0
0.5208308210713225 0 0
0.5236689923798302 0 0
0.5265071636883379 0 0
0.5293453349968456 0 0
0.5322542688749324 0 0
0.5351632027530194 0 0
0.5380721366311063 0 0
0.5409810705091932 0 0
0.5438900043872801 0 0
0.546798938265367 0 0
0.5497078721434542 0 0
0.5526168060215413 0 0
0.5555982658890604 0 0
0.5585797257565794 0 0
0.5615611856240985 0 0
0.5645426454916174 0 0
0.5675241053591363 0 0
0.5705055652266553 0 0
0.573487025094174 0 0
0.5764684849616929 0 0
0.5795242799281514 0 0
0.5825800748946097 0 0
0.5856358698610682 0 0
0.5886916648275264 0 0
0.5917474597939848 0 0
0.594803254760443 0 0
0.5978590497269014 0 0
0.6009148446933597 0 0
0.6040468277321712 0 0
0.6071788107709829 0 0
0.6103107938097947 0 0
0.6134427768486063 0 0
0.6165747598874178 0 0
0.6197067429262294 0 0
0.622838725965041 0 0
0.6259707090038525 0 0
0.6291807803827252 0 0
0.6323908517615975 0 0
0.6356009231404701 0 0
0.6388109945193426 0 0
0.6420210658982153 0 0
0.6452311372770879 0 0
0.6484412086559603 0 0
0.6516512800348327 0 0
0.654941385083684 0 0
0.6582314901325355 0 0
0.6615215951813869 0 0
0.6648117002302383 0 0
0.6681018052790895 0 0
0.671391910327941 0 0
0.6746820153767924 0 0
0.6779721204256438 0 0
0.6813442541305882 0 0
0.6847163878355327 0 0
0.6880885215404773 0 0
0.6914606552454217 0 0
0.694832788950366 0 0
0.6982049226553106 0 0
0.7015770563602555 0 0
0.7049491900652003 0 0
0.7084054012372655 0 0
0.7118616124093304 0 0
0.7153178235813956 0 0
0.7187740347534608 0 0
0.722230245925526 0 0
0.7256864570975909 0 0
0.7291426682696561 0 0
0.7325988794417214 0 0
0.7361412607933124 0 0
0.7396836421449031 0 0
0.743226023496494 0 0
0.746768404848085 0 0
0.7503107861996759 0 0
0.753853167551267 0 0
0.7573955489028578 0 0
0.7609379302544484 0 0
0.7645686313185536 0 0
0.7681993323826587 0 0
0.7718300334467638 0 0
0.7754607345108688 0 0
0.7790914355749738 0 0
0.7827221366390789 0 0
0.7863528377031836 0 0
0.7899835387672884 0 0
0.7937047612201651 0 0
0.7974259836730414 0 0
0.8011472061259178 0 0
0.8048684285787944 0 0
0.8085896510316709 0 0
0.8123108734845474 0 0
0.8160320959374239 0 0
0.8197533183903003 0 0
0.823567319969233 0 0
0.827381321548166 0 0
0.8311953231270988 0 0
0.835009324706032 0 0
0.8388233262849651 0 0
0.8426373278638979 0 0
0.846451329442831 0 0
0.8502653310217639 0 0
0.8541744250484025 0 0
0.8580835190750411 0 0
0.8619926131016797 0 0
0.8659017071283183 0 0
0.8698108011549568 0 0
0.8737198951815954 0 0
0.877628989208234 0 0
0.8815380832348727 0 0
0.8855446394896055 0 0
0.8895511957443385 0 0
0.8935577519990712 0 0
0.8975643082538043 0 0
0.9015708645085367 0 0
0.9055774207632692 0 0
0.9095839770180015 0 0
0.9135905332727341 0 0
0.9176969822319099 0 0
0.9218034311910857 0 0
0.9259098801502614 0 0
0.9300163291094372 0 0
0.934122778068613 0 0
0.9382292270277888 0 0
0.9423356759869645 0 0
0.9464421249461403 0 0
0.9506509573590987 0 0
0.954859789772057 0 0
0.9590686221850153 0 0
0.9632774545979734 0 0
0.9674862870109318 0 0
0.9716951194238903 0 0
0.9759039518368486 0 0
0.9801127842498071 0 0
0.9844265523967421 0 0
0.9887403205436772 0 0
0.993054088690612 0 0
0.9973678568375468 0 0
1.001681624984481 0 0
1.005995393131416 0 0
1.01030916127835 0 0
1.014622929425284 0 0
1.019044250067271 0 0
1.023465570709259 0 0
1.027886891351246 0 0
1.032308211993234 0 0
1.036729532635221 0 0
1.041150853277209 0 0
1.045572173919197 0 0
1.049993494561185 0 0
1.054525048861344 0 0
1.059056603161504 0 0
1.063588157461663 0 0
1.068119711761823 0 0
1.072651266061982 0 0
1.077182820362142 0 0
1.081714374662301 0 0
1.086245928962461 0 0
1.090890464991422 0 0
1.095535001020384 0 0
1.100179537049345 0 0
1.104824073078306 0 0
1.109468609107267 0 0
1.114113145136229 0 0
1.11875768116519 0 0
1.123402217194151 0 0
1.128162552343992 0 0
1.132922887493832 0 0
1.137683222643673 0 0
1.142443557793513 0 0
1.147203892943354 0 0
1.151964228093194 0 0
1.156724563243035 0 0
1.161484898392876 0 0
1.166363920386472 0 0
1.171242942380068 0 0
1.176121964373663 0 0
1.181000986367259 0 0
1.185880008360855 0 0
1.190759030354451 0 0
1.195638052348047 0 0
1.200517074341642 0 0
1.205517741103262 0 0
1.210518407864881 0 0
1.215519074626501 0 0
1.220519741388121 0 0
1.22552040814974 0 0
1.230521074911359 0 0
1.235521741672978 0 0
1.240522408434598 0 0
1.245647754218637 0 0
1.250773100002676 0 0
1.255898445786714 0 0
1.261023791570752 0 0
1.26614913735479 0 0
1.271274483138828 0 0
1.276399828922865 0 0
1.281525174706902 0 0
1.286778305990669 0 0
1.292031437274436 0 0
1.297284568558203 0 0
1.30253769984197 0 0
1.307790831125737 0 0
1.313043962409504 0 0
1.318297093693271 0 0
1.323550224977038 0 0
1.328934330101061 0 0
1.334318435225084 0 0
1.339702540349107 0 0
1.345086645473129 0 0
1.350470750597152 0 0
1.355854855721175 0 0
1.361238960845198 0 0
1.36662306596922 0 0
1.372141408986328 0 0
1.377659752003437 0 0
1.383178095020545 0 0
1.388696438037652 0 0
1.39421478105476 0 0
1.399733124071868 0 0
1.405251467088977 0 0
1.410769810106085 0 0
1.416425737860338 0 0
1.422081665614591 0 0
1.427737593368843 0 0
1.433393521123097 0 0
1.43904944887735 0 0
1.444705376631602 0 0
1.450361304385855 0 0
1.456017232140108 0 0
1.461814175453888 0 0
1.467611118767668 0 0
1.473408062081448 0 0
1.479205005395228 0 0
1.485001948709008 0 0
1.490798892022788 0 0
1.496595835336568 0 0
1.502392778650348 0 0
1.508334253672905 0 0
1.514275728695462 0 0
1.52021720371802 0 0
1.526158678740577 0 0
1.532100153763134 0 0
1.538041628785692 0 0
1.543983103808249 0 0
1.549924578830806 0 0
1.556014188438758 0 0
1.56210379804671 0 0
1.568193407654662 0 0
1.574283017262616 0 0
1.580372626870568 0 0
1.586462236478521 0 0
1.592551846086474 0 0
1.598641455694426 0 0
1.60488289256254 0 0
1.611124329430653 0 0
1.617365766298767 0 0
1.62360720316688 0 0
1.629848640034995 0 0
1.636090076903108 0 0
1.642331513771222 0 0
1.648572950639335 0 0
1.654970002727602 0 0
1.661367054815868 0 0
1.667764106904133 0 0
1.674161158992399 0 0
1.680558211080664 0 0
1.68695526316893 0 0
1.693352315257195 0 0
1.699749367345461 0 0
1.706305911968309 0 0
1.712862456591156 0 0
1.719419001214003 0 0
1.725975545836851 0 0
1.732532090459699 0 0
1.739088635082545 0 0
1.745645179705393 0 0
1.75220172432824 0 0
1.758921737741339 0 0
1.765641751154438 0 0
1.772361764567537 0 0
1.779081777980636 0 0
1.785801791393736 0 0
1.792521804806835 0 0
1.799241818219935 0 0
1.805961831633034 0 0
1.812849391566551 0 0
1.819736951500069 0 0
1.826624511433586 0 0
1.833512071367104 0 0
1.84039963130062 0 0
1.847287191234137 0 0
1.854174751167654 0 0
1.86106231110117 0 0
1.868121594220931 0 0
1.875180877340692 0 0
1.882240160460454 0 0
1.889299443580217 0 0
1.896358726699979 0 0
1.903418009819742 0 0
1.910477292939503 0 0
1.917536576059264 0 0
1.924771863027303 0 0
1.932007149995341 0 0
1.939242436963379 0 0
1.946477723931419 0 0
1.953713010899457 0 0
1.960948297867496 0 0
1.968183584835534 0 0
1.975418871803573 0 0
1.982834550400374 0 0
1.990250228997176 0 0
1.997665907593978 0 0
2.00508158619078 0 0
2.012497264787581 0 0
2.019912943384384 0 0
2.027328621981185 0 0
2.034744300577987 0 0
2.042344869987657 0 0
2.049945439397329 0 0
2.057546008806998 0 0
2.065146578216669 0 0
2.072747147626343 0 0
2.080347717036017 0 0
2.087948286445689 0 0
2.095548855855361 0 0
2.103338925004594 0 0
2.111128994153828 0 0
2.118919063303062 0 0
2.126709132452295 0 0
2.134499201601528 0 0
2.142289270750761 0 0
2.150079339899995 0 0
2.157869409049227 0 0
2.165853701114157 0 0
2.173837993179087 0 0
2.181822285244017 0 0
2.189806577308946 0 0
2.197790869373877 0 0
2.205775161438808 0 0
2.213759453503739 0 0
2.22174374556867 0 0
2.229927107169391 0 0
2.238110468770111 0 0
2.246293830370831 0 0
2.254477191971552 0 0
2.262660553572273 0 0
2.270843915172994 0 0
2.279027276773714 0 0
2.287210638374436 0 0
2.295598028712129 0 0
2.303985419049822 0 0
2.312372809387516 0 0
2.32076019972521 0 0
2.329147590062903 0 0
2.337534980400597 0 0
2.345922370738291 0 0
2.354309761075983 0 0
2.362906267138194 0 0
2.371502773200406 0 0
2.380099279262618 0 0
2.388695785324831 0 0
2.397292291387044 0 0
2.405888797449257 0 0
2.41448530351147 0 0
2.423081809573683 0 0
2.431892649903405 0 0
2.440703490233127 0 0
2.449514330562849 0 0
2.45832517089257 0 0
2.467136011222291 0 0
2.475946851552013 0 0
2.484757691881735 0 0
2.493568532211459 0 0
2.502599044473952 0 0
2.511629556736448 0 0
2.520660068998946 0 0
2.529690581261443 0 0
2.538721093523943 0 0
2.547751605786441 0 0
2.556782118048939 0 0
2.565812630311437 0 0
2.575068294893621 0 0
2.584323959475805 0 0
2.593579624057991 0 0
2.602835288640174 0 0
2.612090953222358 0 0
2.621346617804541 0 0
2.630602282386726 0 0
2.63985794696891 0 0
2.649344377831346 0 0
2.658830808693784 0 0
2.66831723955622 0 0
2.677803670418655 0 0
2.687290101281091 0 0
2.696776532143526 0 0
2.706262963005964 0 0
2.715749393868399 0 0
2.725472341135642 0 0
2.735195288402887 0 0
2.74491823567013 0 0
2.754641182937373 0 0
2.764364130204616 0 0
2.77408707747186 0 0
2.783810024739104 0 0
2.793532972006349 0 0
2.803498337526888 0 0
2.813463703047425 0 0
2.823429068567964 0 0
2.833394434088504 0 0
2.843359799609043 0 0
2.853325165129583 0 0
2.86329053065012 0 0
2.873255896170656 0 0
2.883469719986135 0 0
2.893683543801612 0 0
2.903897367617091 0 0
2.914111191432569 0 0
2.924325015248048 0 0
2.934538839063527 0 0
2.944752662879005 0 0
2.954966486694486 0 0
2.965434964782004 0 0
2.975903442869521 0 0
2.986371920957041 0 0
2.996840399044561 0 0
3.00730887713208 0 0
3.0177773552196 0 0
3.028245833307118 0 0
3.038714311394638 0 0
3.049443792715307 0 0
3.060173274035973 0 0
3.070902755356641 0 0
3.081632236677308 0 0
3.092361717997976 0 0
3.103091199318644 0 0
3.113820680639314 0 0
3.124550161959982 0 0
3.135547154692733 0 0
3.146544147425482 0 0
3.157541140158234 0 0
3.168538132890984 0 0
3.179535125623738 0 0
3.190532118356488 0 0
3.20152911108924 0 0
3.212526103821991 0 0
3.22379727598491 0 0
3.235068448147829 0 0
3.246339620310749 0 0
3.257610792473669 0 0
3.26888196463659 0 0
3.28015313679951 0 0
3.29142430896243 0 0
3.302695481125349 0 0
3.31424767133778 0 0
3.325799861550208 0 0
3.337352051762636 0 0
3.348904241975062 0 0
3.360456432187489 0 0
3.372008622399918 0 0
3.383560812612345 0 0
3.395113002824773 0 0
3.406953214738677 0 0
3.41879342665258 0 0
3.430633638566486 0 0
3.44247385048039 0 0
3.45431406239429 0 0
3.466154274308193 0 0
3.477994486222095 0 0
3.489834698135997 0 0
3.501970114137877 0 0
3.514105530139757 0 0
3.526240946141636 0 0
3.538376362143518 0 0
3.5505117781454 0 0
3.562647194147281 0 0
3.574782610149163 0 0
3.586918026151045 0 0
3.59935600630886 0 0
3.611793986466675 0 0
3.624231966624488 0 0
3.636669946782299 0 0
3.649107926940112 0 0
3.661545907097925 0 0
3.673983887255742 0 0
3.686421867413557 0 0
3.699169960094348 0 0
3.71191805277514 0 0
3.724666145455931 0 0
3.737414238136722 0 0
3.750162330817513 0 0
3.762910423498301 0 0
3.775658516179091 0 0
3.788406608859882 0 0
3.801472532333588 0 0
3.814538455807296 0 0
3.827604379281002 0 0
3.840670302754709 0 0
3.853736226228415 0 0
3.866802149702122 0 0
3.879868073175829 0 0
3.892933996649535 0 0
3.906325688509025 0 0
3.919717380368514 0 0
3.933109072228004 0 0
3.946500764087491 0 0
3.95989245594698 0 0
3.973284147806467 0 0
3.986675839665955 0 0
4.000067531525444 0 0
4.013793109060611 0 0
4.027518686595776 0 0
4.041244264130938 0 0
4.054969841666103 0 0
4.06869541920127 0 0
4.08242099673643 0 0
4.096146574271592 0 0
4.109872151806759 0 0
4.123939936022967 0 0
4.138007720239168 0 0
4.152075504455367 0 0
4.166143288671568 0 0
4.180211072887772 0 0
4.194278857103974 0 0
4.208346641320174 0 0
4.222414425536376 0 0
4.236832960342634 0 0
4.251251495148896 0 0
4.265670029955158 0 0
4.280088564761419 0 0
4.294507099567683 0 0
4.308925634373947 0 0
4.323344169180206 0 0
4.337762703986464 0 0
4.3525407207086 0 0
4.367318737430738 0 0
4.382096754152871 0 0
4.396874770875004 0 0
4.411652787597141 0 0
4.426430804319279 0 0
4.441208821041414 0 0
4.455986837763547 0 0
4.471133305420826 0 0
4.48627977307811 0 0
4.501426240735392 0 0
4.516572708392671 0 0
4.531719176049951 0 0
4.546865643707234 0 0
4.562012111364518 0 0
4.577158579021802 0 0
4.592682682770937 0 0
4.608206786520068 0 0
4.6237308902692 0 0
4.639254994018331 0 0
4.654779097767464 0 0
4.6703032015166 0 0
4.685827305265732 0 0
4.701351409014868 0 0
4.717262565030275 0 0
4.733173721045678 0 0
4.749084877061083 0 0
4.764996033076485 0 0
4.78090718909189 0 0
4.796818345107289 0 0
4.812729501122691 0 0
4.828640657138096 0 0
4.844948515258803 0 0
4.861256373379512 0 0
4.877564231500216 0 0
4.893872089620926 0 0
4.910179947741631 0 0
4.926487805862337 0 0
4.942795663983045 0 0
4.959103522103757 0 0
4.975817969031299 0 0
4.992532415958839 0 0
5.009246862886366 0 0
5.025961309813887 0 0
5.042675756741406 0 0
5.059390203668927 0 0
5.076104650596443 0 0
5.092819097523962 0 0
5.109950281092428 0 0
5.127081464660899 0 0
5.144212648229367 0 0
5.161343831797836 0 0
5.178475015366305 0 0
5.195606198934773 0 0
5.212737382503244 0 0
5.22986856607171 0 0
5.247426867032288 0 0
5.264985167992869 0 0
5.282543468953441 0 0
5.300101769914014 0 0
5.317660070874576 0 0
5.335218371835135 0 0
5.352776672795708 0 0
5.370334973756279 0 0
5.388331043195668 0 0
5.406327112635065 0 0
5.424323182074459 0 0
5.442319251513853 0 0
5.46031532095324 0 0
5.478311390392628 0 0
5.496307459832023 0 0
5.514303529271414 0 0
5.532748281843981 0 0
5.551193034416544 0 0
5.569637786989116 0 0
5.588082539561697 0 0
5.606527292134274 0 0
5.624972044706851 0 0
5.643416797279427 0 0
5.661861549852004 0 0
5.680766172663212 0 0
5.699670795474426 0 0
5.718575418285651 0 0
5.737480041096884 0 0
5.756384663908087 0 0
5.775289286719289 0 0
5.794193909530496 0 0
5.813098532341703 0 0
5.83247449219559 0 0
5.851850452049472 0 0
5.871226411903355 0 0
5.890602371757238 0 0
5.90997833161112 0 0
5.929354291465003 0 0
5.948730251318888 0 0
5.968106211172776 0 0
5.987965260335484 0 0
6.007824309498195 0 0
6.027683358660894 0 0
6.047542407823593 0 0
6.067401456986294 0 0
6.087260506148996 0 0
6.107119555311693 0 0
6.126978604474408 0 0
6.147332785096671 0 0
6.167686965718931 0 0
6.188041146341192 0 0
6.208395326963455 0 0
6.228749507585722 0 0
6.249103688207978 0 0
6.269457868830236 0 0
6.289812049452498 0 0
6.310673705824509 0 0
6.331535362196514 0 0
6.352397018568505 0 0
6.373258674940498 0 0
6.394120331312505 0 0
6.414981987684506 0 0
6.435843644056502 0 0
6.456705300428497 0 0
6.478087086809269 0 0
6.499468873190039 0 0
6.520850659570813 0 0
6.542232445951585 0 0
6.56361423233237 0 0
6.58499601871315 0 0
6.606377805093917 0 0
6.627759591474685 0 0
6.649674472745126 0 0
6.671589354015568 0 0
6.693504235286014 0 0
6.715419116556442 0 0
6.737333997826868 0 0
6.759248879097294 0 0
6.781163760367736 0 0
6.803078641638178 0 0
6.825539915656966 0 0
6.848001189675752 0 0
6.870462463694524 0 0
6.892923737713319 0 0
6.915385011732093 0 0
6.937846285750886 0 0
6.960307559769663 0 0
6.982768833788455 0 0
7.005790116852872 0 0
7.028811399917286 0 0
7.051832682981689 0 0
7.074853966046099 0 0
7.097875249110501 0 0
7.120896532174914 0 0
7.143917815239325 0 0
7.166939098303735 0 0
7.190534356638977 0 0
7.214129614974203 0 0
7.237724873309435 0 0
7.261320131644672 0 0
7.284915389979901 0 0
7.30851064831513 0 0
7.33210590665036 0 0
7.355701164985582 0 0
7.379884707792667 0 0
7.404068250599751 0 0
7.428251793406831 0 0
7.452435336213923 0 0
7.47661887902101 0 0
7.500802421828096 0 0
7.52498596463518 0 0
7.549169507442263 0 0
7.573956001582559 0 0
7.598742495722838 0 0
7.623528989863129 0 0
7.648315484003412 0 0
7.673101978143691 0 0
7.697888472283983 0 0
7.722674966424268 0 0
7.747461460564554 0 0
7.772865939064218 0 0
7.798270417563878 0 0
7.823674896063527 0 0
7.849079374563176 0 0
7.874483853062814 0 0
7.899888331562453 0 0
7.9252928100621 0 0
7.950697288561756 0 0
7.976735160905646 0 0
8.002773033249516 0 0
8.028810905593362 0 0
8.05484877793722 0 0
8.080886650281098 0 0
8.106924522624956 0 0
8.132962394968809 0 0
8.159000267312649 0 0
8.185687329983574 0 0
8.212374392654503 0 0
8.239061455325455 0 0
8.265748517996393 0 0
8.292435580667338 0 0
8.319122643338272 0 0
8.345809706009199 0 0
8.37249676868012 0 0
8.399849184706635 0 0
8.427201600733161 0 0
8.454554016759673 0 0
8.481906432786198 0 0
8.50925884881274 0 0
8.53661126483928 0 0
8.5639636808658 0 0
8.591316096892328 0 0
8.619350486668806 0 0
8.647384876445285 0 0
8.675419266221761 0 0
8.703453655998235 0 0
8.731488045774707 0 0
8.759522435551183 0 0
8.787556825327666 0 0
8.815591215104142 0 0
8.844324558596862 0 0
8.873057902089549 0 0
8.901791245582253 0 0
8.930524589074977 0 0
8.959257932567674 0 0
8.98799127606037 0 0
9.01672461955307 0 0
9.045457963045777 0 0
9.074907708259056 0 0
9.104357453472302 0 0
9.133807198685588 0 0
9.163256943898858 0 0
9.192706689112136 0 0
9.222156434325413 0 0
9.251606179538706 0 0
9.281055924752005 0 0
9.311239910892157 0 0
9.341423897032319 0 0
9.371607883172473 0 0
9.401791869312634 0 0
9.431975855452791 0 0
9.462159841592943 0 0
9.492343827733109 0 0
9.522527813873268 0 0
9.553464353843399 0 0
9.584400893813545 0 0
9.615337433783704 0 0
9.646273973753861 0 0
9.677210513724008 0 0
9.708147053694159 0 0
9.739083593664303 0 0
9.770020133634453 0 0
9.801727998303884 0 0
9.833435862973321 0 0
9.865143727642758 0 0
9.896851592312219 0 0
9.928559456981667 0 0
9.960267321651081 0 0
9.991975186320497 0 0
10.02368305098991 0 0
10.05618146243379 0 0
10.08867987387765 0 0
10.12117828532153 0 0
10.1536766967654 0 0
10.18617510820924 0 0
10.21867351965307 0 0
10.2511719310969 0 0
10.28367034254074 0 0
10.31697901906555 0 0
10.35028769559036 0 0
10.38359637211516 0 0
10.41690504863997 0 0
10.45021372516477 0 0
10.48352240168956 0 0
10.51683107821438 0 0
10.55013975473918 0 0
10.58427888930173 0 0
10.6184180238643 0 0
10.65255715842683 0 0
10.68669629298937 0 0
10.7208354275519 0 0
10.75497456211446 0 0
10.78911369667697 0 0
10.82325283123948 0 0
10.85824313430268 0 0
10.89323343736586 0 0
10.92822374042905 0 0
10.96321404349223 0 0
10.99820434655544 0 0
11.03319464961866 0 0
11.06818495268188 0 0
11.10317525574509 0 0
11.13903795323069 0 0
11.17490065071627 0 0
11.21076334820186 0 0
11.24662604568745 0 0
11.28248874317304 0 0
11.31835144065863 0 0
11.35421413814422 0 0
11.39007683562981 0 0
11.42683366681055 0 0
11.46359049799131 0 0
11.50034732917207 0 0
11.53710416035283 0 0
11.57386099153362 0 0
11.61061782271442 0 0
11.64737465389518 0 0
11.68413148507599 0 0
11.72180475353747 0 0
11.75947802199896 0 0
11.7971512904605 0 0
11.83482455892202 0 0
11.87249782738347 0 0
11.91017109584492 0 0
11.94784436430639 0 0
11.98551763276786 0 0
12.02413018064529 0 0
12.06274272852265 0 0
12.10135527640003 0 0
12.13996782427744 0 0
12.17858037215485 0 0
12.21719292003226 0 0
12.25580546790968 0 0
12.2944180157871 0 0
12.33399326742567 0 0
12.37356851906424 0 0
12.41314377070284 0 0
12.45271902234144 0 0
12.49229427398001 0 0
12.53186952561857 0 0
12.57144477725715 0 0
12.61102002889571 0 0
12.65158198038131 0 0
12.69214393186689 0 0
12.73270588335247 0 0
12.77326783483805 0 0
12.81382978632362 0 0
12.85439173780918 0 0
12.89495368929476 0 0
12.93551564078034 0 0
12.97708889607684 0 0
13.01866215137332 0 0
13.0602354066698 0 0
13.10180866196628 0 0
13.14338191726277 0 0
13.18495517255922 0 0
13.22652842785568 0 0
13.26810168315219 0 0
13.31071145459896 0 0
13.35332122604573 0 0
13.3959309974925 0 0
13.43854076893929 0 0
13.48115054038607 0 0
13.52376031183281 0 0
13.56637008327961 0 0
13.60897985472634 0 0
13.65265198922432 0 0
13.69632412372235 0 0
13.73999625822042 0 0
13.7836683927185 0 0
13.82734052721655 0 0
13.8710126617146 0 0
13.91468479621261 0 0
13.95835693071064 0 0
14.00311790623846 0 0
14.04787888176628 0 0
14.09263985729409 0 0
14.13740083282191 0 0
14.18216180834976 0 0
14.2269227838776 0 0
14.27168375940542 0 0
14.3164447349332 0 0
14.36232171609917 0 0
14.40819869726514 0 0
14.45407567843112 0 0
14.49995265959705 0 0
14.54582964076297 0 0
14.59170662192889 0 0
14.63758360309482 0 0
14.68346058426078 0 0
14.73048137987092 0 0
14.77750217548109 0 0
14.82452297109124 0 0
14.87154376670138 0 0
14.91856456231158 0 0
14.96558535792176 0 0
15.01260615353197 0 0
15.05962694914214 0 0
15.10782008127061 0 0
15.15601321339909 0 0
15.20420634552753 0 0
15.25239947765597 0 0
15.30059260978443 0 0
15.34878574191292 0 0
15.3969788740414 0 0
15.44517200616989 0 0
15.49456670374093 0 0
15.54396140131193 0 0
15.59335609888297 0 0
15.64275079645403 0 0
15.69214549402506 0 0
15.74154019159608 0 0
15.79093488916713 0 0
15.84032958673819 0 0
15.89095580847141 0 0
15.94158203020464 0 0
15.99220825193789 0 0
16.0428344736711 0 0
16.09346069540432 0 0
16.14408691713756 0 0
16.19471313887076 0 0
16.24533936060397 0 0
16.29722781585364 0 0
16.34911627110329 0 0
16.40100472635295 0 0
16.45289318160258 0 0
16.50478163685227 0 0
16.55667009210189 0 0
16.60855854735152 0 0
16.66044700260117 0 0
16.71362916244595 0 0
16.76681132229074 0 0
16.81999348213549 0 0
16.87317564198022 0 0
16.92635780182501 0 0
16.97953996166976 0 0
17.03272212151451 0 0
17.08590428135926 0 0
17.14041239462171 0 0
17.19492050788416 0 0
17.24942862114648 0 0
17.30393673440885 0 0
17.35844484767127 0 0
17.41295296093373 0 0
17.46746107419611 0 0
17.52196918745847 0 0
17.57783628836166 0 0
17.63370338926486 0 0
17.68957049016804 0 0
17.74543759107123 0 0
17.80130469197451 0 0
17.85717179287778 0 0
17.913038893781 0 0
17.9689059946842 0 0
18.0261660183925 0 0
18.0834260421008 0 0
18.14068606580905 0 0
18.19794608951737 0 0
18.25520611322563 0 0
18.31246613693387 0 0
18.36972616064205 0 0
18.42698618435028 0 0
18.48567381498961 0 0
18.54436144562897 0 0
18.60304907626827 0 0
18.66173670690757 0 0
18.7204243375469 0 0
18.77911196818628 0 0
18.83779959882567 0 0
18.89648722946499 0 0
18.95663810782514 0 0
19.01678898618533 0 0
19.07693986454558 0 0
19.13709074290579 0 0
19.1972416212661 0 0
19.25739249962644 0 0
19.31754337798677 0 0
19.37769425634709 0 0
19.43934481595135 0 0
19.50099537555567 0 0
19.56264593516002 0 0
19.6242964947644 0 0
19.68594705436876 0 0
19.74759761397314 0 0
19.8092481735776 0 0
19.87089873318198 0 0
19.93408637223031 0 0
19.99727401127864 0 0
20.06046165032728 0 0
20.1236492893759 0 0
20.18683692842453 0 0
20.25002456747301 0 0
20.31321220652157 0 0
20.37639984557013 0 0
20.4411629169396 0 0
20.50592598830911 0 0
20.57068905967864 0 0
20.63545213104808 0 0
20.70021520241753 0 0
20.76497827378709 0 0
20.82974134515657 0 0
20.89450441652604 0 0
20.96088216836998 0 0
21.02725992021408 0 0
21.09363767205816 0 0
21.16001542390215 0 0
21.22639317574608 0 0
21.29277092759003 0 0
21.35914867943409 0 0
21.42552643127802 0 0
21.4935591548582 0 0
21.56159187843852 0 0
21.62962460201863 0 0
21.69765732559873 0 0
21.76569004917903 0 0
21.8337227727593 0 0
21.90175549633958 0 0
21.96978821991984 0 0
22.03951714241007 0 0
22.1092460649003 0 0
22.1789749873905 0 0
22.2487039098807 0 0
22.31843283237114 0 0
22.38816175486161 0 0
22.45789067735203 0 0
22.5276195998424 0 0
22.59908702478025 0 0
22.67055444971806 0 0
22.74202187465586 0 0
22.81348929959369 0 0
22.88495672453158 0 0
22.95642414946946 0 0
23.02789157440722 0 0
23.09935899934494 0 0
23.17260827496452 0 0
23.24585755058408 0 0
23.31910682620369 0 0
23.39235610182318 0 0
23.46560537744272 0 0
23.5388546530623 0 0
23.61210392868187 0 0
23.68535320430142 0 0
23.76042875440984 0 0
23.83550430451832 0 0
23.91057985462672 0 0
23.98565540473521 0 0
24.06073095484366 0 0
24.13580650495215 0 0
24.21088205506058 0 0
24.28595760516899 0 0
24.36290496039479 0 0
24.43985231562052 0 0
24.51679967084634 0 0
24.59374702607217 0 0
24.67069438129798 0 0
24.74764173652382 0 0
24.82458909174959 0 0
24.90153644697549 0 0
24.98040227544787 0 0
25.05926810392022 0 0
25.13813393239262 0 0
25.21699976086522 0 0
25.29586558933768 0 0
25.37473141781016 0 0
25.45359724628263 0 0
25.53246307475509 0 0
25.61329522808332 0 0
25.69412738141135 0 0
25.77495953473949 0 0
25.85579168806758 0 0
25.93662384139565 0 0
26.0174559947238 0 0
26.09828814805191 0 0
26.17912030137994 0 0
26.26196777141793 0 0
26.34481524145589 0 0
26.42766271149391 0 0
26.51051018153186 0 0
26.59335765156993 0 0
26.67620512160794 0 0
26.75905259164599 0 0
26.84190006168399 0 0
26.92681311845648 0 0
27.01172617522892 0 0
27.09663923200128 0 0
27.18155228877367 0 0
27.26646534554598 0 0
27.35137840231832 0 0
27.43629145909065 0 0
27.52120451586288 0 0
27.60823464051715 0 0
27.69526476517133 0 0
27.78229488982546 0 0
27.86932501447966 0 0
27.95635513913378 0 0
28.04338526378786 0 0
28.13041538844204 0 0
28.21744551309622 0 0
28.30664550983413 0 0
28.39584550657201 0 0
28.48504550330993 0 0
28.57424550004776 0 0
28.66344549678548 0 0
28.75264549352338 0 0
28.8418454902612 0 0
28.93104548699894 0 0
29.0224694480359 0 0
29.11389340907309 0 0
29.20531737011006 0 0
29.29674133114715 0 0
29.38816529218409 0 0
29.47958925322102 0 0
29.57101321425815 0 0
29.66243717529524 0 0
29.75614055126492 0 0
29.84984392723459 0 0
29.94354730320418 0 0
30.0372506791737 0 0
30.13095405514331 0 0
30.2246574311129 0 0
30.31836080708235 0 0
30.41206418305199 0 0
30.50810379292844 0 0
30.60414340280477 0 0
30.70018301268117 0 0
30.79622262255766 0 0
30.89226223243418 0 0
30.98830184231073 0 0
31.08434145218711 0 0
31.18038106206345 0 0
31.27881515625349 0 0
31.37724925044329 0 0
31.47568334463328 0 0
31.57411743882325 0 0
31.67255153301327 0 0
31.77098562720329 0 0
31.86941972139336 0 0
31.96785381558339 0 0
32.06874211725922 0 0
32.16963041893503 0 0
32.27051872061079 0 0
32.37140702228663 0 0
32.4722953239625 0 0
32.57318362563824 0 0
32.67407192731384 0 0
32.7749602289896 0 0
32.8783639110097 0 0
32.98176759303002 0 0
33.08517127505027 0 0
33.18857495707039 0 0
33.29197863909049 0 0
33.39538232111052 0 0
33.49878600313048 0 0
33.60218968515068 0 0
33.70817146534752 0 0
33.81415324554457 0 0
33.92013502574142 0 0
34.02611680593848 0 0
34.13209858613516 0 0
34.2380803663319 0 0
34.34406214652893 0 0
34.45004392672584 0 0
34.55866806157405 0 0
34.66729219642213 0 0
34.77591633127005 0 0
34.88454046611825 0 0
34.99316460096642 0 0
35.1017887358147 0 0
35.210412870663 0 0
35.3190370055113 0 0
35.43036937296051 0 0
35.54170174040988 0 0
35.65303410785921 0 0
35.76436647530833 0 0
35.87569884275802 0 0
35.98703121020773 0 0
36.09836357765756 0 0
36.20969594510763 0 0
36.32380412393466 0 0
36.43791230276162 0 0
36.55202048158833 0 0
36.66612866041492 0 0
36.78023683924239 0 0
36.89434501806934 0 0
37.00845319689665 0 0
37.12256137572384 0 0
37.23951450189864 0 0
37.35646762807358 0 0
37.47342075424839 0 0
37.59037388042332 0 0
37.70732700659828 0 0
37.82428013277316 0 0
37.941233258948 0 0
38.05818638512294 0 0
38.17805545367096 0 0
38.29792452221904 0 0
38.4177935907669 0 0
38.53766265931467 0 0
38.65753172786242 0 0
38.77740079641017 0 0
38.89726986495781 0 0
39.01713893350544 0 0
39.1399965668173 0 0
39.26285420012901 0 0
39.38571183344027 0 0
39.50856946675155 0 0
39.63142710006362 0 0
39.75428473337572 0 0
39.87714236668786 0 0
$EndNodes
$Elements
3 1498 1 1498
0 1 15 1
1 1 
0 2 15 1
2 2 
1 1 1 1496
3 1 3 
4 3 4 
5 4 5 
6 5 6 
7 6 7 
8 7 8 
9 8 9 
10 9 10 
11 10 11 
12 11 12 
13 12 13 
14 13 14 
15 14 15 
16 15 16 
17 16 17 
18 17 18 
19 18 19 
20 19 20 
21 20 21 
22 21 22 
23 22 23 
24 23 24 
25 24 25 
26 25 26 
27 26 27 
28 27 28 
29 28 29 
30 29 30 
31 30 31 
32 31 32 
33 32 33 
34 33 34 
35 34 35 
36 35 36 
37 36 37 
38 37 38 
39 38 39 
40 39 40 
41 40 41 
42 41 42 
43 42 43 
44 43 44 
45 44 45 
46 45 46 
47 46 47 
48 47 48 
49 48 49 
50 49 50 
51 50 51 
52 51 52 
53 52 53 
54 53 54 
55 54 55 
56 55 56 
57 56 57 
58 57 58 
59 58 59 
60 59 60 
61 60 61 
62 61 62 
63 62 63 
64 63 64 
65 64 65 
66 65 66 
67 66 67 
68 67 68 
69 68 69 
70 69 70 
71 70 71 
72 71 72 
73 72 73 
74 73 74 
75 74 75 
76 75 76 
77 76 77 
78 77 78 
79 78 79 
80 79 80 
81 80 81 
82 81 82 
83 82 83 
84 83 84 
85 84 85 
86 85 86 
87 86 87 
88 87 88 
89 88 89 
90 89 90 
91 90 91 
92 91 92 
93 92 93 
94 93 94 
95 94 95 
96 95 96 
97 96 97 
98 97 98 
99 98 99 
100 99 100 
101 100 101 
102 101 102 
103 102 103 
104 103 104 
105 104 105 
106 105 106 
107 106 107 
108 107 108 
109 108 109 
110 109 110 
111 110 111 
112 111 112 
113 112 113 
114 113 114 
115 114 115 
116 115 116 
117 116 117 
118 117 118 
119 118 119 
120 119 120 
121 120 121 
122 121 122 
123 122 123 
124 123 124 
125 124 125 
126 125 126 
127 126 127 
128 127 128 
129 128 129 
130 129 130 
131 130 131 
132 131 132 
133 132 133 
134 133 134 
135 134 135 
136 135 136 
137 136 137 
138 137 138 
139 138 139 
140 139 140 
141 140 141 
142 141 142 
143 142 143 
144 143 144 
145 144 145 
146 145 146 
147 146 147 
148 147 148 
149 148 149 
150 149 150 
151 150 151 
152 151 152 
153 152 153 
154 153 154 
155 154 155 
156 155 156 
157 156 157 
158 157 158 
159 158 159 
160 159 160 
161 160 161 
162 161 162 
163 162 163 
164 163 164 
165 164 165 
166 165 166 
167 166 167 
168 167 168 
169 168 169 
170 169 170 
171 170 171 
172 171 172 
173 172 173 
174 173 174 
175 174 175 
176 175 176 
177 176 177 
178 177 178 
179 178 179 
180 179 180 
181 180 181 
182 181 182 
183 182 183 
184 183 184 
185 184 185 
186 185 186 
187 186 187 
188 187 188 
189 188 189 
190 189 190 
191 190 191 
192 191 192 
193 192 193 
194 193 194 
195 194 195 
196 195 196 
197 196 197 
198 197 198 
199 198 199 
200 199 200 
201 200 201 
202 201 202 
203 202 203 
204 203 204 
205 204 205 
206 205 206 
207 206 207 
208 207 208 
209 208 209 
210 209 210 
211 210 211 
212 211 212 
213 212 213 
214 213 214 
215 214 215 
216 215 216 
217 216 217 
218 217 218 
219 218 219 
220 219 220 
221 220 221 
222 221 222 
223 222 223 
224 223 224 
225 224 225 
226 225 226 
227 226 227 
228 227 228 
229 228 229 
230 229 230 
231 230 231 
232 231 232 
233 232 233 
234 233 234 
235 234 235 
236 235 236 
237 236 237 
238 237 238 
239 238 239 
240 239 240 
241 240 241 
242 241 242 
243 242 243 
244 243 244 
245 244 245 
246 245 246 
247 246 247 
248 247 248 
249 248 249 
250 249 250 
251 250 251 
252 251 252 
253 252 253 
254 253 254 
255 254 255 
256 255 256 
257 256 257 
258 257 258 
259 258 259 
260 259 260 
261 260 261 
262 261 262 
263 262 263 
264 263 264 
265 264 265 
266 265 266 
267 266 267 
268 267 268 
269 268 269 
270 269 270 
271 270 271 
272 271 272 
273 272 273 
274 273 274 
275 274 275 
276 275 276 
277 276 277 
278 277 278 
279 278 279 
280 279 280 
281 280 281 
282 281 282 
283 282 283 
284 283 284 
285 284 285 
286 285 286 
287 286 287 
288 287 288 
289 288 289 
290 289 290 
291 290 291 
292 291 292 
293 292 293 
294 293 294 
295 294 295 
296 295 296 
297 296 297 
298 297 298 
299 298 299 
300 299 300 
301 300 301 
302 301 302 
303 302 303 
304 303 304 
305 304 305 
306 305 306 
307 306 307 
308 307 308 
309 308 309 
310 309 310 
311 310 311 
312 311 312 
313 312 313 
314 313 314 
315 314 315 
316 315 316 
317 316 317 
318 317 318 
319 318 319 
320 319 320 
321 320 321 
322 321 322 
323 322 323 
324 323 324 
325 324 325 
326 325 326 
327 326 327 
328 327 328 
329 328 329 
330 329 330 
331 330 331 
332 331 332 
333 332 333 
334 333 334 
335 334 335 
336 335 336 
337 336 337 
338 337 338 
339 338 339 
340 339 340 
341 340 341 
342 341 342 
343 342 343 
344 343 344 
345 344 345 
346 345 346 
347 346 347 
348 347 348 
349 348 349 
350 349 350 
351 350 351 
352 351 352 
353 352 353 
354 353 354 
355 354 355 
356 355 356 
357 356 357 
358 357 358 
359 358 359 
360 359 360 
361 360 361 
362 361 362 
363 362 363 
364 363 364 
365 364 365 
366 365 366 
367 366 367 
368 367 368 
369 368 369 
370 369 370 
371 370 371 
372 371 372 
373 372 373 
374 373 374 
375 374 375 
376 375 376 
377 376 377 
378 377 378 
379 378 379 
380 379 380 
381 380 381 
382 381 382 
383 382 383 
384 383 384 
385 384 385 
386 385 386 
387 386 387 
388 387 388 
389 388 389 
390 389 390 
391 390 391 
392 391 392 
393 392 393 
394 393 394 
395 394 395 
396 395 396 
397 396 397 
398 397 398 
399 398 399 
400 399 400 
401 400 401 
402 401 402 
403 402 403 
404 403 404 
405 404 405 
406 405 406 
407 406 407 
408 407 408 
409 408 409 
410 409 410 
411 410 411 
412 411 412 
413 412 413 
414 413 414 
415 414 415 
416 415 416 
417 416 417 
418 417 418 
419 418 419 
420 419 420 
421 420 421 
422 421 422 
423 422 423 
424 423 424 
425 424 425 
426 425 426 
427 426 427 
428 427 428 
429 428 429 
430 429 430 
431 430 431 
432 431 432 
433 432 433 
434 433 434 
435 434 435 
436 435 436 
437 436 437 
438 437 438 
439 438 439 
440 439 440 
441 440 441 
442 441 442 
443 442 443 
444 443 444 
445 444 445 
446 445 446 
447 446 447 
448 447 448 
449 448 449 
450 449 450 
451 450 451 
452 451 452 
453 452 453 
454 453 454 
455 454 455 
456 455 456 
457 456 457 
458 457 458 
459 458 459 
460 459 460 
461 460 461 
462 461 462 
463 462 463 
464 463 464 
465 464 465 
466 465 466 
467 466 467 
468 467 468 
469 468 469 
470 469 470 
471 470 471 
472 471 472 
473 472 473 
474 473 474 
475 474 475 
476 475 476 
477 476 477 
478 477 478 
479 478 479 
480 479 480 
481 480 481 
482 481 482 
483 482 483 
484 483 484 
485 484 485 
486 485 486 
487 486 487 
488 487 488 
489 488 489 
490 489 490 
491 490 491 
492 491 492 
493 492 493 
494 493 494 
495 494 495 
496 495 496 
497 496 497 
498 497 498 
499 498 499 
500 499 500 
501 500 501 
502 501 502 
503 502 503 
504 503 504 
505 504 505 
506 505 506 
507 506 507 
508 507 508 
509 508 509 
510 509 510 
511 510 511 
512 511 512 
513 512 513 
514 513 514 
515 514 515 
516 515 516 
517 516 517 
518 517 518 
519 518 519 
520 519 520 
521 520 521 
522 521 522 
523 522 523 
524 523 524 
525 524 525 
526 525 526 
527 526 527 
528 527 528 
529 528 529 
530 529 530 
531 530 531 
532 531 532 
533 532 533 
534 533 534 
535 534 535 
536 535 536 
537 536 537 
538 537 538 
539 538 539 
540 539 540 
541 540 541 
542 541 542 
543 542 543 
544 543 544 
545 544 545 
546 545 546 
547 546 547 
548 547 548 
549 548 549 
550 549 550 
551 550 551 
552 551 552 
553 552 553 
554 553 554 
555 554 555 
556 555 556 
557 556 557 
558 557 558 
559 558 559 
560 559 560 
561 560 561 
562 561 562 
563 562 563 
564 563 564 
565 564 565 
566 565 566 
567 566 567 
568 567 568 
569 568 569 
570 569 570 
571 570 571 
572 571 572 
573 572 573 
574 573 574 
575 574 575 
576 575 576 
577 576 577 
578 577 578 
579 578 579 
580 579 580 
581 580 581 
582 581 582 
583 582 583 
584 583 584 
585 584 585 
586 585 586 
587 586 587 
588 587 588 
589 588 589 
590 589 590 
591 590 591 
592 591 592 
593 592 593 
594 593 594 
595 594 595 
596 595 596 
597 596 597 
598 597 598 
599 598 599 
600 599 600 
601 600 601 
602 601 602 
603 602 603 
604 603 604 
605 604 605 
606 605 606 
607 606 607 
608 607 608 
609 608 609 
610 609 610 
611 610 611 
612 611 612 
613 612 613 
614 613 614 
615 614 615 
616 615 616 
617 616 617 
618 617 618 
619 618 619 
620 619 620 
621 620 621 
622 621 622 
623 622 623 
624 623 624 
625 624 625 
626 625 626 
627 626 627 
628 627 628 
629 628 629 
630 629 630 
631 630 631 
632 631 632 
633 632 633 
634 633 634 
635 634 635 
636 635 636 
637 636 637 
638 637 638 
639 638 639 
640 639 640 
641 640 641 
642 641 642 
643 642 643 
644 643 644 
645 644 645 
646 645 646 
647 646 647 
648 647 648 
649 648 649 
650 649 650 
651 650 651 
652 651 652 
653 652 653 
654 653 654 
655 654 655 
656 655 656 
657 656 657 
658 657 658 
659 658 659 
660 659 660 
661 660 661 
662 661 662 
663 662 663 
664 663 664 
665 664 665 
666 665 666 
667 666 667 
668 667 668 
669 668 669 
670 669 670 
671 670 671 
672 671 672 
673 672 673 
674 673 674 
675 674 675 
676 675 676 
677 676 677 
678 677 678 
679 678 679 
680 679 680 
681 680 681 
682 681 682 
683 682 683 
684 683 684 
685 684 685 
686 685 686 
687 686 687 
688 687 688 
689 688 689 
690 689 690 
691 690 691 
692 691 692 
693 692 693 
694 693 694 
695 694 695 
696 695 696 
697 696 697 
698 697 698 
699 698 699 
700 699 700 
701 700 701 
702 701 702 
703 702 703 
704 703 704 
705 704 705 
706 705 706 
707 706 707 
708 707 708 
709 708 709 
710 709 710 
711 710 711 
712 711 712 
713 712 713 
714 713 714 
715 714 715 
716 715 716 
717 716 717 
718 717 718 
719 718 719 
720 719 720 
721 720 721 
722 721 722 
723 722 723 
724 723 724 
725 724 725 
726 725 726 
727 726 727 
728 727 728 
729 728 729 
730 729 730 
731 730 731 
732 731 732 
733 732 733 
734 733 734 
735 734 735 
736 735 736 
737 736 737 
738 737 738 
739 738 739 
740 739 740 
741 740 741 
742 741 742 
743 742 743 
744 743 744 
745 744 745 
746 745 746 
747 746 747 
748 747 748 
749 748 749 
750 749 750 
751 750 751 
752 751 752 
753 752 753 
754 753 754 
755 754 755 
756 755 756 
757 756 757 
758 757 758 
759 758 759 
760 759 760 
761 760 761 
762 761 762 
763 762 763 
764 763 764 
765 764 765 
766 765 766 
767 766 767 
768 767 768 
769 768 769 
770 769 770 
771 770 771 
772 771 772 
773 772 773 
774 773 774 
775 774 775 
776 775 776 
777 776 777 
778 777 778 
779 778 779 
780 779 780 
781 780 781 
782 781 782 
783 782 783 
784 783 784 
785 784 785 
786 785 786 
787 786 787 
788 787 788 
789 788 789 
790 789 790 
791 790 791 
792 791 792 
793 792 793 
794 793 794 
795 794 795 
796 795 796 
797 796 797 
798 797 798 
799 798 799 
800 799 800 
801 800 801 
802 801 802 
803 802 803 
804 803 804 
805 804 805 
806 805 806 
807 806 807 
808 807 808 
809 808 809 
810 809 810 
811 810 811 
812 811 812 
813 812 813 
814 813 814 
815 814 815 
816 815 816 
817 816 817 
818 817 818 
819 818 819 
820 819 820 
821 820 821 
822 821 822 
823 822 823 
824 823 824 
825 824 825 
826 825 826 
827 826 827 
828 827 828 
829 828 829 
830 829 830 
831 830 831 
832 831 832 
833 832 833 
834 833 834 
835 834 835 
836 835 836 
837 836 837 
838 837 838 
839 838 839 
840 839 840 
841 840 841 
842 841 842 
843 842 843 
844 843 844 
845 844 845 
846 845 846 
847 846 847 
848 847 848 
849 848 849 
850 849 850 
851 850 851 
852 851 852 
853 852 853 
854 853 854 
855 854 855 
856 855 856 
857 856 857 
858 857 858 
859 858 859 
860 859 860 
861 860 861 
862 861 862 
863 862 863 
864 863 864 
865 864 865 
866 865 866 
867 866 867 
868 867 868 
869 868 869 
870 869 870 
871 870 871 
872 871 872 
873 872 873 
874 873 874 
875 874 875 
876 875 876 
877 876 877 
878 877 878 
879 878 879 
880 879 880 
881 880 881 
882 881 882 
883 882 883 
884 883 884 
885 884 885 
886 885 886 
887 886 887 
888 887 888 
889 888 889 
890 889 890 
891 890 891 
892 891 892 
893 892 893 
894 893 894 
895 894 895 
896 895 896 
897 896 897 
898 897 898 
899 898 899 
900 899 900 
901 900 901 
902 901 902 
903 902 903 
904 903 904 
905 904 905 
906 905 906 
907 906 907 
908 907 908 
909 908 909 
910 909 910 
911 910 911 
912 911 912 
913 912 913 
914 913 914 
915 914 915 
916 915 916 
917 916 917 
918 917 918 
919 918 919 
920 919 920 
921 920 921 
922 921 922 
923 922 923 
924 923 924 
925 924 925 
926 925 926 
927 926 927 
928 927 928 
929 928 929 
930 929 930 
931 930 931 
932 931 932 
933 932 933 
934 933 934 
935 934 935 
936 935 936 
937 936 937 
938 937 938 
939 938 939 
940 939 940 
941 940 941 
942 941 942 
943 942 943 
944 943 944 
945 944 945 
946 945 946 
947 946 947 
948 947 948 
949 948 949 
950 949 950 
951 950 951 
952 951 952 
953 952 953 
954 953 954 
955 954 955 
956 955 956 
957 956 957 
958 957 958 
959 958 959 
960 959 960 
961 960 961 
962 961 962 
963 962 963 
964 963 964 
965 964 965 
966 965 966 
967 966 967 
968 967 968 
969 968 969 
970 969 970 
971 970 971 
972 971 972 
973 972 973 
974 973 974 
975 974 975 
976 975 976 
977 976 977 
978 977 978 
979 978 979 
980 979 980 
981 980 981 
982 981 982 
983 982 983 
984 983 984 
985 984 985 
986 985 986 
987 986 987 
988 987 988 
989 988 989 
990 989 990 
991 990 991 
992 991 992 
993 992 993 
994 993 994 
995 994 995 
996 995 996 
997 996 997 
998 997 998 
999 998 999 
1000 999 1000 
1001 1000 1001 
1002 1001 1002 
1003 1002 1003 
1004 1003 1004 
1005 1004 1005 
1006 1005 1006 
1007 1006 1007 
1008 1007 1008 
1009 1008 1009 
1010 1009 1010 
1011 1010 1011 
1012 1011 1012 
1013 1012 1013 
1014 1013 1014 
1015 1014 1015 
1016 1015 1016 
1017 1016 1017 
1018 1017 1018 
1019 1018 1019 
1020 1019 1020 
1021 1020 1021 
1022 1021 1022 
1023 1022 1023 
1024 1023 1024 
1025 1024 1025 
1026 1025 1026 
1027 1026 1027 
1028 1027 1028 
1029 1028 1029 
1030 1029 1030 
1031 1030 1031 
1032 1031 1032 
1033 1032 1033 
1034 1033 1034 
1035 1034 1035 
1036 1035 1036 
1037 1036 1037 
1038 1037 1038 
1039 1038 1039 
1040 1039 1040 
1041 1040 1041 
1042 1041 1042 
1043 1042 1043 
1044 1043 1044 
1045 1044 1045 
1046 1045 1046 
1047 1046 1047 
1048 1047 1048 
1049 1048 1049 
1050 1049 1050 
1051 1050 1051 
1052 1051 1052 
1053 1052 1053 
1054 1053 1054 
1055 1054 1055 
1056 1055 1056 
1057 1056 1057 
1058 1057 1058 
1059 1058 1059 
1060 1059 1060 
1061 1060 1061 
1062 1061 1062 
1063 1062 1063 
1064 1063 1064 
1065 1064 1065 
1066 1065 1066 
1067 1066 1067 
1068 1067 1068 
1069 1068 1069 
1070 1069 1070 
1071 1070 1071 
1072 1071 1072 
1073 1072 1073 
1074 1073 1074 
1075 1074 1075 
1076 1075 1076 
1077 1076 1077 
1078 1077 1078 
1079 1078 1079 
1080 1079 1080 
1081 1080 1081 
1082 1081 1082 
1083 1082 1083 
1084 1083 1084 
1085 1084 1085 
1086 1085 1086 
1087 1086 1087 
1088 1087 1088 
1089 1088 1089 
1090 1089 1090 
1091 1090 1091 
1092 1091 1092 
1093 1092 1093 
1094 1093 1094 
1095 1094 1095 
1096 1095 1096 
1097 1096 1097 
1098 1097 1098 
1099 1098 1099 
1100 1099 1100 
1101 1100 1101 
1102 1101 1102 
1103 1102 1103 
1104 1103 1104 
1105 1104 1105 
1106 1105 1106 
1107 1106 1107 
1108 1107 1108 
1109 1108 1109 
1110 1109 1110 
1111 1110 1111 
1112 1111 1112 
1113 1112 1113 
1114 1113 1114 
1115 1114 1115 
1116 1115 1116 
1117 1116 1117 
1118 1117 1118 
1119 1118 1119 
1120 1119 1120 
1121 1120 1121 
1122 1121 1122 
1123 1122 1123 
1124 1123 1124 
1125 1124 1125 
1126 1125 1126 
1127 1126 1127 
1128 1127 1128 
1129 1128 1129 
1130 1129 1130 
1131 1130 1131 
1132 1131 1132 
1133 1132 1133 
1134 1133 1134 
1135 1134 1135 
1136 1135 1136 
1137 1136 1137 
1138 1137 1138 
1139 1138 1139 
1140 1139 1140 
1141 1140 1141 
1142 1141 1142 
1143 1142 1143 
1144 1143 1144 
1145 1144 1145 
1146 1145 1146 
1147 1146 1147 
1148 1147 1148 
1149 1148 1149 
1150 1149 1150 
1151 1150 1151 
1152 1151 1152 
1153 1152 1153 
1154 1153 1154 
1155 1154 1155 
1156 1155 1156 
1157 1156 1157 
1158 1157 1158 
1159 1158 1159 
1160 1159 1160 
1161 1160 1161 
1162 1161 1162 
1163 1162 1163 
1164 1163 1164 
1165 1164 1165 
1166 1165 1166 
1167 1166 1167 
1168 1167 1168 
1169 1168 1169 
1170 1169 1170 
1171 1170 1171 
1172 1171 1172 
1173 1172 1173 
1174 1173 1174 
1175 1174 1175 
1176 1175 1176 
1177 1176 1177 
1178 1177 1178 
1179 1178 1179 
1180 1179 1180 
1181 1180 1181 
1182 1181 1182 
1183 1182 1183 
1184 1183 1184 
1185 1184 1185 
1186 1185 1186 
1187 1186 1187 
1188 1187 1188 
1189 1188 1189 
1190 1189 1190 
1191 1190 1191 
1192 1191 1192 
1193 1192 1193 
1194 1193 1194 
1195 1194 1195 
1196 1195 1196 
1197 1196 1197 
1198 1197 1198 
1199 1198 1199 
1200 1199 1200 
1201 1200 1201 
1202 1201 1202 
1203 1202 1203 
1204 1203 1204 
1205 1204 1205 
1206 1205 1206 
1207 1206 1207 
1208 1207 1208 
1209 1208 1209 
1210 1209 1210 
1211 1210 1211 
1212 1211 1212 
1213 1212 1213 
1214 1213 1214 
1215 1214 1215 
1216 1215 1216 
1217 1216 1217 
1218 1217 1218 
1219 1218 1219 
1220 1219 1220 
1221 1220 1221 
1222 1221 1222 
1223 1222 1223 
1224 1223 1224 
1225 1224 1225 
1226 1225 1226 
1227 1226 1227 
1228 1227 1228 
1229 1228 1229 
1230 1229 1230 
1231 1230 1231 
1232 1231 1232 
1233 1232 1233 
1234 1233 1234 
1235 1234 1235 
1236 1235 1236 
1237 1236 1237 
1238 1237 1238 
1239 1238 1239 
1240 1239 1240 
1241 1240 1241 
1242 1241 1242 
1243 1242 1243 
1244 1243 1244 
1245 1244 1245 
1246 1245 1246 
1247 1246 1247 
1248 1247 1248 
1249 1248 1249 
1250 1249 1250 
1251 1250 1251 
1252 1251 1252 
1253 1252 1253 
1254 1253 1254 
1255 1254 1255 
1256 1255 1256 
1257 1256 1257 
1258 1257 1258 
1259 1258 1259 
1260 1259 1260 
1261 1260 1261 
1262 1261 1262 
1263 1262 1263 
1264 1263 1264 
1265 1264 1265 
1266 1265 1266 
1267 1266 1267 
1268 1267 1268 
1269 1268 1269 
1270 1269 1270 
1271 1270 1271 
1272 1271 1272 
1273 1272 1273 
1274 1273 1274 
1275 1274 1275 
1276 1275 1276 
1277 1276 1277 
1278 1277 1278 
1279 1278 1279 
1280 1279 1280 
1281 1280 1281 
1282 1281 1282 
1283 1282 1283 
1284 1283 1284 
1285 1284 1285 
1286 1285 1286 
1287 1286 1287 
1288 1287 1288 
1289 1288 1289 
1290 1289 1290 
1291 1290 1291 
1292 1291 1292 
1293 1292 1293 
1294 1293 1294 
1295 1294 1295 
1296 1295 1296 
1297 1296 1297 
1298 1297 1298 
1299 1298 1299 
1300 1299 1300 
1301 1300 1301 
1302 1301 1302 
1303 1302 1303 
1304 1303 1304 
1305 1304 1305 
1306 1305 1306 
1307 1306 1307 
1308 1307 1308 
1309 1308 1309 
1310 1309 1310 
1311 1310 1311 
1312 1311 1312 
1313 1312 1313 
1314 1313 1314 
1315 1314 1315 
1316 1315 1316 
1317 1316 1317 
1318 1317 1318 
1319 1318 1319 
1320 1319 1320 
1321 1320 1321 
1322 1321 1322 
1323 1322 1323 
1324 1323 1324 
1325 1324 1325 
1326 1325 1326 
1327 1326 1327 
1328 1327 1328 
1329 1328 1329 
1330 1329 1330 
1331 1330 1331 
1332 1331 1332 
1333 1332 1333 
1334 1333 1334 
1335 1334 1335 
1336 1335 1336 
1337 1336 1337 
1338 1337 1338 
1339 1338 1339 
1340 1339 1340 
1341 1340 1341 
1342 1341 1342 
1343 1342 1343 
1344 1343 1344 
1345 1344 1345 
1346 1345 1346 
1347 1346 1347 
1348 1347 1348 
1349 1348 1349 
1350 1349 1350 
1351 1350 1351 
1352 1351 1352 
1353 1352 1353 
1354 1353 1354 
1355 1354 1355 
1356 1355 1356 
1357 1356 1357 
1358 1357 1358 
1359 1358 1359 
1360 1359 1360 
1361 1360 1361 
1362 1361 1362 
1363 1362 1363 
1364 1363 1364 
1365 1364 1365 
1366 1365 1366 
1367 1366 1367 
1368 1367 1368 
1369 1368 1369 
1370 1369 1370 
1371 1370 1371 
1372 1371 1372 
1373 1372 1373 
1374 1373 1374 
1375 1374 1375 
1376 1375 1376 
1377 1376 1377 
1378 1377 1378 
1379 1378 1379 
1380 1379 1380 
1381 1380 1381 
1382 1381 1382 
1383 1382 1383 
1384 1383 1384 
1385 1384 1385 
1386 1385 1386 
1387 1386 1387 
1388 1387 1388 
1389 1388 1389 
1390 1389 1390 
1391 1390 1391 
1392 1391 1392 
1393 1392 1393 
1394 1393 1394 
1395 1394 1395 
1396 1395 1396 
1397 1396 1397 
1398 1397 1398 
1399 1398 1399 
1400 1399 1400 
1401 1400 1401 
1402 1401 1402 
1403 1402 1403 
1404 1403 1404 
1405 1404 1405 
1406 1405 1406 
1407 1406 1407 
1408 1407 1408 
1409 1408 1409 
1410 1409 1410 
1411 1410 1411 
1412 1411 1412 
1413 1412 1413 
1414 1413 1414 
1415 1414 1415 
1416 1415 1416 
1417 1416 1417 
1418 1417 1418 
1419 1418 1419 
1420 1419 1420 
1421 1420 1421 
1422 1421 1422 
1423 1422 1423 
1424 1423 1424 
1425 1424 1425 
1426 1425 1426 
1427 1426 1427 
1428 1427 1428 
1429 1428 1429 
1430 1429 1430 
1431 1430 1431 
1432 1431 1432 
1433 1432 1433 
1434 1433 1434 
1435 1434 1435 
1436 1435 1436 
1437 1436 1437 
1438 1437 1438 
1439 1438 1439 
1440 1439 1440 
1441 1440 1441 
1442 1441 1442 
1443 1442 1443 
1444 1443 1444 
1445 1444 1445 
1446 1445 1446 
1447 1446 1447 
1448 1447 1448 
1449 1448 1449 
1450 1449 1450 
1451 1450 1451 
1452 1451 1452 
1453 1452 1453 
1454 1453 1454 
1455 1454 1455 
1456 1455 1456 
1457 1456 1457 
1458 1457 1458 
1459 1458 1459 
1460 1459 1460 
1461 1460 1461 
1462 1461 1462 
1463 1462 1463 
1464 1463 1464 
1465 1464 1465 
1466 1465 1466 
1467 1466 1467 
1468 1467 1468 
1469 1468 1469 
1470 1469 1470 
1471 1470 1471 
1472 1471 1472 
1473 1472 1473 
1474 1473 1474 
1475 1474 1475 
1476 1475 1476 
1477 1476 1477 
1478 1477 1478 
1479 1478 1479 
1480 1479 1480 
1481 1480 1481 
1482 1481 1482 
1483 1482 1483 
1484 1483 1484 
1485 1484 1485 
1486 1485 1486 
1487 1486 1487 
1488 1487 1488 
1489 1488 1489 
1490 1489 1490 
1491 1490 1491 
1492 1491 1492 
1493 1492 1493 
1494 1493 1494 
1495 1494 1495 
1496 1495 1496 
1497 1496 1497 
1498 1497 2 
$EndElements
