$MeshFormat
4.1 0 8
$EndMeshFormat
$PhysicalNames
3
0 2 "center"
0 3 "ext"
1 4 "line"
$EndPhysicalNames
$Entities
2 1 0 0
1 0 0 0 1 2 
2 200 0 0 1 3 
1 0 0 0 200 0 0 1 4 2 1 -2 
$EndEntities
$Nodes
3 1025 1 1025
0 1 0 1
1
0 0 0
0 2 0 1
2
200 0 0
1 1 0 1023
3
4
5
6
7
8
9
10
11
12
13
14
15
16
17
18
19
20
21
22
23
24
25
26
27
28
29
30
31
32
33
34
35
36
37
38
39
40
41
42
43
44
45
46
47
48
49
50
51
52
53
54
55
56
57
58
59
60
61
62
63
64
65
66
67
68
69
70
71
72
73
74
75
76
77
78
79
80
81
82
83
84
85
86
87
88
89
90
91
92
93
94
95
96
97
98
99
100
101
102
103
104
105
106
107
108
109
110
111
112
113
114
115
116
117
118
119
120
121
122
123
124
125
126
127
128
129
130
131
132
133
134
135
136
137
138
139
140
141
142
143
144
145
146
147
148
149
150
151
152
153
154
155
156
157
158
159
160
161
162
163
164
165
166
167
168
169
170
171
172
173
174
175
176
177
178
179
180
181
182
183
184
185
186
187
188
189
190
191
192
193
194
195
196
197
198
199
200
201
202
203
204
205
206
207
208
209
210
211
212
213
214
215
216
217
218
219
220
221
222
223
224
225
226
227
228
229
230
231
232
233
234
235
236
237
238
239
240
241
242
243
244
245
246
247
248
249
250
251
252
253
254
255
256
257
258
259
260
261
262
263
264
265
266
267
268
269
270
271
272
273
274
275
276
277
278
279
280
281
282
283
284
285
286
287
288
289
290
291
292
293
294
295
296
297
298
299
300
301
302
303
304
305
306
307
308
309
310
311
312
313
314
315
316
317
318
319
320
321
322
323
324
325
326
327
328
329
330
331
332
333
334
335
336
337
338
339
340
341
342
343
344
345
346
347
348
349
350
351
352
353
354
355
356
357
358
359
360
361
362
363
364
365
366
367
368
369
370
371
372
373
374
375
376
377
378
379
380
381
382
383
384
385
386
387
388
389
390
391
392
393
394
395
396
397
398
399
400
401
402
403
404
405
406
407
408
409
410
411
412
413
414
415
416
417
418
419
420
421
422
423
424
425
426
427
428
429
430
431
432
433
434
435
436
437
438
439
440
441
442
443
444
445
446
447
448
449
450
451
452
453
454
455
456
457
458
459
460
461
462
463
464
465
466
467
468
469
470
471
472
473
474
475
476
477
478
479
480
481
482
483
484
485
486
487
488
489
490
491
492
493
494
495
496
497
498
499
500
501
502
503
504
505
506
507
508
509
510
511
512
513
514
515
516
517
518
519
520
521
522
523
524
525
526
527
528
529
530
531
532
533
534
535
536
537
538
539
540
541
542
543
544
545
546
547
548
549
550
551
552
553
554
555
556
557
558
559
560
561
562
563
564
565
566
567
568
569
570
571
572
573
574
575
576
577
578
579
580
581
582
583
584
585
586
587
588
589
590
591
592
593
594
595
596
597
598
599
600
601
602
603
604
605
606
607
608
609
610
611
612
613
614
615
616
617
618
619
620
621
622
623
624
625
626
627
628
629
630
631
632
633
634
635
636
637
638
639
640
641
642
643
644
645
646
647
648
649
650
651
652
653
654
655
656
657
658
659
660
661
662
663
664
665
666
667
668
669
670
671
672
673
674
675
676
677
678
679
680
681
682
683
684
685
686
687
688
689
690
691
692
693
694
695
696
697
698
699
700
701
702
703
704
705
706
707
708
709
710
711
712
713
714
715
716
717
718
719
720
721
722
723
724
725
726
727
728
729
730
731
732
733
734
735
736
737
738
739
740
741
742
743
744
745
746
747
748
749
750
751
752
753
754
755
756
757
758
759
760
761
762
763
764
765
766
767
768
769
770
771
772
773
774
775
776
777
778
779
780
781
782
783
784
785
786
787
788
789
790
791
792
793
794
795
796
797
798
799
800
801
802
803
804
805
806
807
808
809
810
811
812
813
814
815
816
817
818
819
820
821
822
823
824
825
826
827
828
829
830
831
832
833
834
835
836
837
838
839
840
841
842
843
844
845
846
847
848
849
850
851
852
853
854
855
856
857
858
859
860
861
862
863
864
865
866
867
868
869
870
871
872
873
874
875
876
877
878
879
880
881
882
883
884
885
886
887
888
889
890
891
892
893
894
895
896
897
898
899
900
901
902
903
904
905
906
907
908
909
910
911
912
913
914
915
916
917
918
919
920
921
922
923
924
925
926
927
928
929
930
931
932
933
934
935
936
937
938
939
940
941
942
943
944
945
946
947
948
949
950
951
952
953
954
955
956
957
958
959
960
961
962
963
964
965
966
967
968
969
970
971
972
973
974
975
976
977
978
979
980
981
982
983
984
985
986
987
988
989
990
991
992
993
994
995
996
997
998
999
1000
1001
1002
1003
1004
1005
1006
1007
1008
1009
1010
1011
1012
1013
1014
1015
1016
1017
1018
1019
1020
1021
1022
1023
1024
1025
0.05008184030288852 0 0
0.1001636806057769 0 0
0.1504712445192193 0 0
0.2007788084326619 0 0
0.2513131163517956 0 0
0.3018474242709294 0 0
0.3526095238543805 0 0
0.4033716234378318 0 0
0.4543625295349232 0 0
0.5053534356320146 0 0
0.5565741557065186 0 0
0.6077948757810225 0 0
0.6592464739337592 0 0
0.7106980720864958 0 0
0.7623815928106066 0 0
0.8140651135347192 0 0
0.865981581110784 0 0
0.917898048686849 0 0
0.970048510999908 0 0
1.022198973312966 0 0
1.074584525839907 0 0
1.126970078366847 0 0
1.179591732776868 0 0
1.232213387186887 0 0
1.285072235898088 0 0
1.337931084609286 0 0
1.391028173320163 0 0
1.444125262031039 0 0
1.497461683435096 0 0
1.550798104839153 0 0
1.604374941811332 0 0
1.65795177878351 0 0
1.711770104511938 0 0
1.765588430240366 0 0
1.819649308355758 0 0
1.87371018647115 0 0
1.928014780144598 0 0
1.982319373818047 0 0
2.03686871356359 0 0
2.09141805330913 0 0
2.146213265750521 0 0
2.201008478191912 0 0
2.256050679817345 0 0
2.311092881442777 0 0
2.366383178741046 0 0
2.421673476039317 0 0
2.477212965633553 0 0
2.532752455227787 0 0
2.588542316659058 0 0
2.64433217809033 0 0
2.700373479893474 0 0
2.756414781696617 0 0
2.812708682730237 0 0
2.86900258376386 0 0
2.925550232456803 0 0
2.982097881149746 0 0
3.038900415641264 0 0
3.09570295013278 0 0
3.152761498410205 0 0
3.209820046687629 0 0
3.267135791662632 0 0
3.324451536637637 0 0
3.382025604990453 0 0
3.439599673343273 0 0
3.497433256301346 0 0
3.555266839259421 0 0
3.613361110005727 0 0
3.671455380752033 0 0
3.729811512927411 0 0
3.788167645102788 0 0
3.846786794588587 0 0
3.905405944074388 0 0
3.964289313883469 0 0
4.023172683692557 0 0
4.08232144823144 0 0
4.141470212770322 0 0
4.200885590266553 0 0
4.260300967762793 0 0
4.31998416549445 0 0
4.379667363226105 0 0
4.43961957766872 0 0
4.499571792111335 0 0
4.559794209082265 0 0
4.620016626053196 0 0
4.680510512786933 0 0
4.741004399520668 0 0
4.801770939591514 0 0
4.862537479662361 0 0
4.923577918451536 0 0
4.984618357240712 0 0
5.045933928954065 0 0
5.10724950066742 0 0
5.168841428485179 0 0
5.230433356302947 0 0
5.292302929400263 0 0
5.354172502497574 0 0
5.416320922079736 0 0
5.478469341661896 0 0
5.540897889855446 0 0
5.603326438048998 0 0
5.666036385450298 0 0
5.728746332851596 0 0
5.791738938681653 0 0
5.854731544511711 0 0
5.918008056768271 0 0
5.981284569024837 0 0
6.044846323772165 0 0
6.108408078519494 0 0
6.172256314177129 0 0
6.23610454983476 0 0
6.300240572300632 0 0
6.364376594766501 0 0
6.428801698227976 0 0
6.49322680168945 0 0
6.55794228694074 0 0
6.622657772192031 0 0
6.687664970995759 0 0
6.752672169799485 0 0
6.817972375032176 0 0
6.883272580264864 0 0
6.948867113576755 0 0
7.014461646888645 0 0
7.080351836063326 0 0
7.146242025238009 0 0
7.212429195191516 0 0
7.278616365145024 0 0
7.3451018919276 0 0
7.411587418710179 0 0
7.478372606217344 0 0
7.545157793724509 0 0
7.612244005278919 0 0
7.679330216833331 0 0
7.746718812430988 0 0
7.814107408028645 0 0
7.881799735505675 0 0
7.949492062982705 0 0
8.017489527682729 0 0
8.085486992382757 0 0
8.153790928846011 0 0
8.222094865309257 0 0
8.290706676958081 0 0
8.359318488606906 0 0
8.428239566259531 0 0
8.497160643912153 0 0
8.566392365951749 0 0
8.635624087991346 0 0
8.705167865225665 0 0
8.774711642459984 0 0
8.844568868049976 0 0
8.914426093639962 0 0
8.984598200700347 0 0
9.054770307760728 0 0
9.125258716542122 0 0
9.195747125323514 0 0
9.266553243384848 0 0
9.337359361446181 0 0
9.408484624741458 0 0
9.479609888036736 0 0
9.551055732361274 0 0
9.622501576685814 0 0
9.694269463444313 0 0
9.766037350202811 0 0
9.838128727694667 0 0
9.910220105186522 0 0
9.982636408781334 0 0
10.05505271237615 0 0
10.12779543827012 0 0
10.2005381641641 0 0
10.27360875896799 0 0
10.34667935377187 0 0
10.42007930578968 0 0
10.49347925780749 0 0
10.56721004201537 0 0
10.64094082622324 0 0
10.71500395544098 0 0
10.78906708465871 0 0
10.86346402841404 0 0
10.93786097216936 0 0
11.01259325772573 0 0
11.0873255432821 0 0
11.16239468419069 0 0
11.23746382509928 0 0
11.31287132138283 0 0
11.38827881766639 0 0
11.46402620468801 0 0
11.53977359170964 0 0
11.61586239424358 0 0
11.69195119677752 0 0
11.76838296616921 0 0
11.8448147355609 0 0
11.92159100925877 0 0
11.99836728295664 0 0
12.07548960743905 0 0
12.15261193192146 0 0
12.23008187575402 0 0
12.30755181958657 0 0
12.38537095428461 0 0
12.46319008898265 0 0
12.54135998828282 0 0
12.61952988758302 0 0
12.69805212786919 0 0
12.77657436815537 0 0
12.85545052940194 0 0
12.9343266906485 0 0
13.01355837441527 0 0
13.09279005818205 0 0
13.17237887382717 0 0
13.2519676894723 0 0
13.33191523195519 0 0
13.41186277443809 0 0
13.49217068042292 0 0
13.57247858640777 0 0
13.6531484614943 0 0
13.73381833658084 0 0
13.81485182457885 0 0
13.89588531257686 0 0
13.97728404257359 0 0
14.05868277257032 0 0
14.14044840194267 0 0
14.22221403131502 0 0
14.30434820040258 0 0
14.38648236949016 0 0
14.46898675544365 0 0
14.55149114139714 0 0
14.6343674063357 0 0
14.71724367127428 0 0
14.8004935315886 0 0
14.88374339190293 0 0
14.96736839170989 0 0
15.05099339151686 0 0
15.1349954224513 0 0
15.21899745338575 0 0
15.30337802652673 0 0
15.38775859966771 0 0
15.47251953412079 0 0
15.55728046857386 0 0
15.64242347568083 0 0
15.72756648278779 0 0
15.81309323888271 0 0
15.89861999497763 0 0
15.98453222534623 0 0
16.07044445571482 0 0
16.15674399626206 0 0
16.24304353680933 0 0
16.32973202539116 0 0
16.41642051397299 0 0
16.50349971700351 0 0
16.59057892003404 0 0
16.67805062571803 0 0
16.765522331402 0 0
16.85338833973283 0 0
16.94125434806368 0 0
17.02951637892677 0 0
17.11777840978987 0 0
17.20643826292068 0 0
17.29509811605148 0 0
17.38415757506257 0 0
17.47321703407366 0 0
17.56267792572324 0 0
17.6521388173728 0 0
17.74200298303196 0 0
17.83186714869112 0 0
17.92213630667602 0 0
18.01240546466093 0 0
18.10308152267084 0 0
18.19375758068076 0 0
18.28484237195628 0 0
18.37592716323182 0 0
18.46742248809917 0 0
18.55891781296653 0 0
18.65082552555125 0 0
18.74273323813597 0 0
18.83505520381264 0 0
18.92737716948933 0 0
19.02011532871694 0 0
19.11285348794454 0 0
19.20600955858397 0 0
19.29916562922337 0 0
19.3927416849418 0 0
19.48631774066021 0 0
19.58031553459706 0 0
19.67431332853392 0 0
19.76873479890255 0 0
19.86315626927117 0 0
19.95800333685723 0 0
20.05285040444333 0 0
20.14812497283892 0 0
20.24339954123449 0 0
20.33910351403452 0 0
20.43480748683456 0 0
20.53094291799118 0 0
20.62707834914783 0 0
20.72364703020315 0 0
20.82021571125849 0 0
20.91721965779441 0 0
21.01422360433034 0 0
21.11166482254786 0 0
21.20910604076537 0 0
21.3069864350864 0 0
21.40486682940744 0 0
21.50318844752203 0 0
21.6015100656366 0 0
21.70027484698904 0 0
21.79903962834145 0 0
21.89824951939503 0 0
21.99745941044862 0 0
22.09711654624617 0 0
22.19677368204372 0 0
22.29687998871765 0 0
22.39698629539157 0 0
22.49754380757583 0 0
22.59810131976011 0 0
22.699112080412 0 0
22.80012284106391 0 0
22.9015888748612 0 0
23.0030549086585 0 0
23.10497831194137 0 0
23.20690171522426 0 0
23.30928452106037 0 0
23.41166732689649 0 0
23.51451162212079 0 0
23.61735591734507 0 0
23.72066374843562 0 0
23.82397157952617 0 0
23.9277450634045 0 0
24.0315185472828 0 0
24.13575978187527 0 0
24.24000101646777 0 0
24.34471208096029 0 0
24.44942314545282 0 0
24.55460620378615 0 0
24.65978926211948 0 0
24.76544639571796 0 0
24.87110352931643 0 0
24.97723693932108 0 0
25.08337034932559 0 0
25.189982120642 0 0
25.2965938919584 0 0
25.40368619306366 0 0
25.51077849416891 0 0
25.61835347412974 0 0
25.72592845409057 0 0
25.8339883763162 0 0
25.94204829854181 0 0
26.05059522541671 0 0
26.15914215229159 0 0
26.26817839722867 0 0
26.37721464216575 0 0
26.48674232769358 0 0
26.59627001322139 0 0
26.70629137505312 0 0
26.81631273688486 0 0
26.92682999069818 0 0
27.0373472445115 0 0
27.14836265265482 0 0
27.25937806079812 0 0
27.37089386943648 0 0
27.48240967807483 0 0
27.59442812607485 0 0
27.70644657407485 0 0
27.81896991549303 0 0
27.93149325691122 0 0
28.04452379134528 0 0
28.15755432577936 0 0
28.27109433221111 0 0
28.38463433864286 0 0
28.49868607571415 0 0
28.61273781278543 0 0
28.72730368390898 0 0
28.8418695550325 0 0
28.95695176530052 0 0
29.0720339755685 0 0
29.18763490653874 0 0
29.30323583750902 0 0
29.4193578492999 0 0
29.53547986109076 0 0
29.65212529266936 0 0
29.76877072424789 0 0
29.88594189371308 0 0
30.00311306317825 0 0
30.12081236665355 0 0
30.23851167012887 0 0
30.35674145607966 0 0
30.47497124203045 0 0
30.59373397238929 0 0
30.71249670274812 0 0
30.83179472666624 0 0
30.95109275058431 0 0
31.070928531839 0 0
31.19076431309371 0 0
31.31114020326492 0 0
31.43151609343611 0 0
31.5524345709096 0 0
31.67335304838313 0 0
31.79481652655681 0 0
31.91628000473047 0 0
32.03829097711927 0 0
32.16030194950807 0 0
32.2828628872393 0 0
32.40542382497053 0 0
32.52853717708389 0 0
32.6516505291973 0 0
32.77531878039572 0 0
32.89898703159415 0 0
33.02321271005679 0 0
33.14743838851944 0 0
33.27222401477897 0 0
33.39700964103848 0 0
33.52235770212473 0 0
33.64770576321096 0 0
33.77361881377063 0 0
33.8995318643303 0 0
34.02601248459317 0 0
34.15249310485613 0 0
34.27954377601957 0 0
34.40659444718297 0 0
34.53421777590665 0 0
34.66184110463031 0 0
34.79003970157321 0 0
34.91823829851619 0 0
35.04701475864691 0 0
35.17579121877774 0 0
35.30514810874267 0 0
35.43450499870755 0 0
35.56444491764444 0 0
35.69438483658138 0 0
35.82491044550279 0 0
35.95543605442417 0 0
36.08655000798822 0 0
36.21766396155229 0 0
36.34936888333096 0 0
36.48107380510967 0 0
36.61337240362437 0 0
36.74567100213901 0 0
36.87856585723928 0 0
37.01146071233956 0 0
37.14495463140516 0 0
37.27844855047071 0 0
37.41254415172842 0 0
37.5466397529861 0 0
37.68133975970776 0 0
37.81603976642944 0 0
37.95134691378142 0 0
38.08665406113342 0 0
38.22257111651254 0 0
38.35848817189177 0 0
38.49501783785673 0 0
38.63154750382173 0 0
38.76869255428326 0 0
38.90583760474479 0 0
39.04360082461883 0 0
39.18136404449287 0 0
39.31974819378137 0 0
39.45813234306985 0 0
39.59714026858104 0 0
39.7361481940921 0 0
39.87578264750622 0 0
40.0154171009203 0 0
40.15568095178578 0 0
40.29594480265126 0 0
40.43684089474369 0 0
40.57773698683609 0 0
40.71926813850381 0 0
40.86079929017152 0 0
41.00296835914021 0 0
41.1451374281089 0 0
41.28794729105565 0 0
41.43075715400245 0 0
41.57421073704584 0 0
41.71766432008922 0 0
41.86176452309271 0 0
42.00586472609621 0 0
42.15061442302008 0 0
42.29536411994398 0 0
42.4407662505354 0 0
42.58616838112683 0 0
42.73222588249899 0 0
42.87828338387117 0 0
43.0249992359273 0 0
43.17171508798334 0 0
43.31909224392661 0 0
43.46646939986982 0 0
43.61451080252421 0 0
43.76255220517856 0 0
43.91126092824715 0 0
44.05996965131573 0 0
44.20934864618052 0 0
44.35872764104533 0 0
44.50877992267851 0 0
44.65883220431165 0 0
44.80956085800489 0 0
44.96028951169816 0 0
45.11169752054588 0 0
45.2631055293936 0 0
45.41519602104878 0 0
45.56728651270402 0 0
45.72006251225227 0 0
45.87283851180046 0 0
46.02630312330913 0 0
46.17976773481781 0 0
46.33392409800668 0 0
46.48808046119552 0 0
46.64293164065748 0 0
46.79778282011945 0 0
46.95333197048747 0 0
47.10888112085549 0 0
47.26513139357129 0 0
47.42138166628712 0 0
47.57833618462083 0 0
47.73529070295456 0 0
47.89295272478908 0 0
48.0506147466237 0 0
48.20898738490651 0 0
48.36736002318932 0 0
48.52644650048094 0 0
48.68553297777257 0 0
48.84533648834354 0 0
49.00513999891457 0 0
49.16566386321409 0 0
49.32618772751358 0 0
49.48743510107065 0 0
49.64868247462774 0 0
49.81065664835951 0 0
49.97263082209128 0 0
50.13533505797704 0 0
50.29803929386274 0 0
50.46147692347607 0 0
50.62491455308943 0 0
50.78908883203521 0 0
50.95326311098101 0 0
51.118177397425 0 0
51.28309168386905 0 0
51.44874930586242 0 0
51.61440692785576 0 0
51.78081131288997 0 0
51.94721569792416 0 0
52.11436995222245 0 0
52.28152420652074 0 0
52.4494320443363 0 0
52.61733988215184 0 0
52.78600436613124 0 0
52.95466885011065 0 0
53.12409372095108 0 0
53.29351859179157 0 0
53.46370709437747 0 0
53.63389559696336 0 0
53.80485117090209 0 0
53.97580674484082 0 0
54.14753284452177 0 0
54.31925894420272 0 0
54.49175908629581 0 0
54.66425922838891 0 0
54.83753699537169 0 0
55.01081476235436 0 0
55.1848733578839 0 0
55.35893195341342 0 0
55.53377532066809 0 0
55.70861868792281 0 0
55.88425003804667 0 0
56.05988138817053 0 0
56.23630435367259 0 0
56.41272731917464 0 0
56.58994550338476 0 0
56.76716368759484 0 0
56.94518066154535 0 0
57.12319763549589 0 0
57.30201693835411 0 0
57.48083624121237 0 0
57.66046162258386 0 0
57.84008700395534 0 0
58.02052197682686 0 0
58.20095694969844 0 0
58.38220527813124 0 0
58.56345360656405 0 0
58.74551882853517 0 0
58.92758405050624 0 0
59.11046991175687 0 0
59.29335577300753 0 0
59.47706598562387 0 0
59.66077619824017 0 0
59.84531444110473 0 0
60.02985268396927 0 0
60.21522261812039 0 0
60.40059255227151 0 0
60.58679821759222 0 0
60.77300388291292 0 0
60.96004869098591 0 0
61.14709349905881 0 0
61.33498139209775 0 0
61.52286928513669 0 0
61.71160412925952 0 0
61.90033897338238 0 0
62.08992446329974 0 0
62.27950995321705 0 0
62.469950023153 0 0
62.6603900930889 0 0
62.85168857546043 0 0
63.04298705783196 0 0
63.23514764096733 0 0
63.42730822410272 0 0
63.62033512987308 0 0
63.81336203564349 0 0
64.00725888800581 0 0
64.20115574036805 0 0
64.39592654745519 0 0
64.59069735454244 0 0
64.78634608841803 0 0
64.98199482229356 0 0
65.17852541943648 0 0
65.37505601657939 0 0
65.57247237836029 0 0
65.76988874014108 0 0
65.96819503656184 0 0
66.16650133298259 0 0
66.36570132322593 0 0
66.56490131346909 0 0
66.76499933689354 0 0
66.96509736031798 0 0
67.16609724165126 0 0
67.3670971229845 0 0
67.56900295310272 0 0
67.77090878322085 0 0
67.97372463466766 0 0
68.17654048611443 0 0
68.38027065142322 0 0
68.58400081673209 0 0
68.78864910578065 0 0
68.99329739482918 0 0
69.1988682512057 0 0
69.40443910758212 0 0
69.61093647941286 0 0
69.81743385124361 0 0
70.02486197737575 0 0
70.23229010350794 0 0
70.44065318473135 0 0
70.64901626595473 0 0
70.85831846551183 0 0
71.06762066506909 0 0
71.2778663525504 0 0
71.48811204003174 0 0
71.69930529364919 0 0
71.91049854726664 0 0
72.12264383203551 0 0
72.33478911680447 0 0
72.54789057066856 0 0
72.76099202453253 0 0
72.97505398941269 0 0
73.18911595429273 0 0
73.40414273322304 0 0
73.61916951215336 0 0
73.83516557964704 0 0
74.05116164714083 0 0
74.26813123182954 0 0
74.48510081651824 0 0
74.70304842030458 0 0
74.92099602409093 0 0
75.13992595422522 0 0
75.35885588435953 0 0
75.57877261725284 0 0
75.79868935014612 0 0
76.01959732207162 0 0
76.24050529399699 0 0
76.46240890162733 0 0
76.68431250925771 0 0
76.90721648475169 0 0
77.13012046024573 0 0
77.35402902127187 0 0
77.57793758229791 0 0
77.80285537490396 0 0
78.02777316751001 0 0
78.2537047958819 0 0
78.47963642425377 0 0
78.70658645127845 0 0
78.93353647830314 0 0
79.16150942612192 0 0
79.38948237394079 0 0
79.61848280173683 0 0
79.84748322953293 0 0
80.07751592512254 0 0
80.30754862071217 0 0
80.53861815516109 0 0
80.76968768960995 0 0
81.00179871201841 0 0
81.233909734427 0 0
81.46706692875514 0 0
81.70022412308349 0 0
81.93443231348941 0 0
82.16864050389539 0 0
82.40390431411605 0 0
82.63916812433671 0 0
82.87549239696312 0 0
83.11181666958967 0 0
83.3492061072219 0 0
83.58659554485426 0 0
83.82505498815146 0 0
84.06351443144867 0 0
84.30304867770518 0 0
84.54258292396167 0 0
84.78319683229077 0 0
85.02381074061996 0 0
85.26550922853649 0 0
85.50720771645297 0 0
85.74999562808785 0 0
85.99278353972259 0 0
86.2366657636434 0 0
86.48054798756429 0 0
86.72552947208467 0 0
86.97051095660504 0 0
87.21659660578197 0 0
87.46268225495933 0 0
87.70987722899049 0 0
87.9570722030216 0 0
88.20538126309054 0 0
88.45369032315965 0 0
88.70311861442669 0 0
88.95254690569377 0 0
89.20309950731634 0 0
89.45365210893873 0 0
89.70533408400395 0 0
89.95701605906913 0 0
90.2098324058947 0 0
90.46264875272027 0 0
90.7166046330464 0 0
90.97056051337255 0 0
91.22566102491734 0 0
91.48076153646225 0 0
91.73701191443966 0 0
91.99326229241716 0 0
92.25066772504276 0 0
92.50807315766849 0 0
92.76663878678946 0 0
93.02520441591044 0 0
93.28493545287252 0 0
93.54466648983467 0 0
93.80556823266042 0 0
94.06646997548617 0 0
94.32854773805911 0 0
94.59062550063206 0 0
94.85388449145482 0 0
95.11714348227758 0 0
95.38158918174852 0 0
95.64603488121946 0 0
95.91167243752284 0 0
96.17730999382626 0 0
96.44414493934096 0 0
96.71097988485566 0 0
96.9790175173934 0 0
97.2470551499312 0 0
97.51630092211087 0 0
97.7855466942905 0 0
98.0560060099224 0 0
98.32646532555437 0 0
98.59814379614951 0 0
98.86982226674471 0 0
99.14272520254583 0 0
99.4156281383471 0 0
99.68976116584906 0 0
99.96389419335108 0 0
100.2392628884601 0 0
100.5146315835693 0 0
100.7912414722823 0 0
101.0678513609953 0 0
101.345707921512 0 0
101.6235644820285 0 0
101.9026735763692 0 0
102.1817826707094 0 0
102.4621497604908 0 0
102.7425168502719 0 0
103.0241476287791 0 0
103.3057784072863 0 0
103.5886786126813 0 0
103.8715788180761 0 0
104.155754183684 0 0
104.4399295492917 0 0
104.7253857906697 0 0
105.0108420320476 0 0
105.2975849143066 0 0
105.5843277965657 0 0
105.872363126591 0 0
106.1603984566162 0 0
106.4497320265107 0 0
106.7390655964053 0 0
107.029703391039 0 0
107.3203411856726 0 0
107.6122889547237 0 0
107.9042367237744 0 0
108.1975003971533 0 0
108.4907640705322 0 0
108.7853495617731 0 0
109.079935053014 0 0
109.3758483983917 0 0
109.6717617437695 0 0
109.9690088009161 0 0
110.2662558580626 0 0
110.5648427879342 0 0
110.8634297178057 0 0
111.163362474405 0 0
111.4632952310043 0 0
111.764579941912 0 0
112.0658646528196 0 0
112.3685072515021 0 0
112.6711498501852 0 0
112.9751566656104 0 0
113.2791634810356 0 0
113.584540525965 0 0
113.889917570894 0 0
114.1966710641795 0 0
114.5034245574648 0 0
114.8115607400749 0 0
115.1196969226848 0 0
115.429221945035 0 0
115.7387469673854 0 0
116.0496671310568 0 0
116.3605872947282 0 0
116.6729089097785 0 0
116.9852305248283 0 0
117.298959844875 0 0
117.6126891649214 0 0
117.9278326343312 0 0
118.2429761037413 0 0
118.5595400032366 0 0
118.8761039027317 0 0
119.1940946846381 0 0
119.5120854665447 0 0
119.8315095253946 0 0
120.1509335842439 0 0
120.4717974319698 0 0
120.7926612796955 0 0
121.1149713403144 0 0
121.4372814009332 0 0
121.761044264625 0 0
122.0848071283168 0 0
122.4100293261712 0 0
122.7352515240254 0 0
123.061939528832 0 0
123.3886275336386 0 0
123.7167881489257 0 0
124.0449487642128 0 0
124.3745884721801 0 0
124.7042281801476 0 0
125.0353536562429 0 0
125.3664791323382 0 0
125.6990973380055 0 0
126.0317155436726 0 0
126.3658328322917 0 0
126.6999501209108 0 0
127.0355732324336 0 0
127.3711963439562 0 0
127.7083324378956 0 0
128.0454685318354 0 0
128.384124196205 0 0
128.7227798605747 0 0
129.0629618900197 0 0
129.4031439194663 0 0
129.7448592925628 0 0
130.0865746656599 0 0
130.4298302983411 0 0
130.7730859310219 0 0
131.1178886774185 0 0
131.4626914238147 0 0
131.8090482419161 0 0
132.1554050600168 0 0
132.5033233161471 0 0
132.8512415722778 0 0
133.2007277938323 0 0
133.5502140153868 0 0
133.9012754297193 0 0
134.2523368440534 0 0
134.6049808491561 0 0
134.9576248542587 0 0
135.3118582515702 0 0
135.6660916488822 0 0
136.0219216512748 0 0
136.3777516536671 0 0
136.7351857511558 0 0
137.0926198486452 0 0
137.4516648429876 0 0
137.8107098373293 0 0
138.1713731934308 0 0
138.532036549533 0 0
138.8943254075211 0 0
139.2566142655084 0 0
139.6205363554075 0 0
139.9844584453067 0 0
140.3500207634996 0 0
140.7155830816917 0 0
141.0827930617679 0 0
141.4500030418442 0 0
141.8188680681674 0 0
142.1877330944901 0 0
142.5582610719549 0 0
142.92878904942 0 0
143.3009868339986 0 0
143.6731846185774 0 0
144.0470602420519 0 0
144.4209358655266 0 0
144.796496513641 0 0
145.1720571617552 0 0
145.5493106047491 0 0
145.9265640477433 0 0
146.305517985912 0 0
146.6844719240808 0 0
147.0651339887152 0 0
147.4457960533496 0 0
147.8281738076592 0 0
148.2105515619689 0 0
148.594652797499 0 0
148.9787540330294 0 0
149.3645866398716 0 0
149.7504192467135 0 0
150.1379909791076 0 0
150.5255627115015 0 0
150.9148812997957 0 0
151.304199888089 0 0
151.6952732858724 0 0
152.086346683656 0 0
152.4791827732229 0 0
152.8720188627895 0 0
153.2666254560916 0 0
153.6612320493933 0 0
154.0576176243812 0 0
154.4540031993697 0 0
154.8521750853497 0 0
155.25034697133 0 0
155.6503138087378 0 0
156.0502806461453 0 0
156.4520502382416 0 0
156.8538198303372 0 0
157.2574002772872 0 0
157.660980724236 0 0
158.0663801506054 0 0
158.4717795769745 0 0
158.8790066058055 0 0
159.2862336346368 0 0
159.695295896085 0 0
160.1043581575329 0 0
160.5152644250993 0 0
160.9261706926663 0 0
161.3389289329918 0 0
161.7516871733175 0 0
162.1663058736209 0 0
162.5809245739239 0 0
162.9974121451813 0 0
163.4138997164369 0 0
163.8322644944023 0 0
164.2506292723681 0 0
164.670879729692 0 0
165.0911301870163 0 0
165.5132750108821 0 0
165.9354198347482 0 0
166.3594673827741 0 0
166.7835149308005 0 0
167.2094737641351 0 0
167.6354325974691 0 0
168.0633114094067 0 0
168.491190221345 0 0
168.9209976272815 0 0
169.3508050332181 0 0
169.7825495716901 0 0
170.2142941101619 0 0
170.6479850231363 0 0
171.081675936111 0 0
171.517321402641 0 0
171.9529668691707 0 0
172.3905759330646 0 0
172.8281849969574 0 0
173.2677666205225 0 0
173.7073482440881 0 0
174.1489113092309 0 0
174.5904743743739 0 0
175.0340276836732 0 0
175.477580992973 0 0
175.9231333628293 0 0
176.3686857326865 0 0
176.816246617894 0 0
177.2638075031018 0 0
177.7133856371621 0 0
178.162963771222 0 0
178.6145682821657 0 0
179.0661727931095 0 0
179.5198128183007 0 0
179.9734528434926 0 0
180.4291375007367 0 0
180.8848221579824 0 0
181.3425610253963 0 0
181.8002998928102 0 0
182.260101741727 0 0
182.7199035906433 0 0
183.1817779072087 0 0
183.6436522237739 0 0
184.1076084701669 0 0
184.5715647165596 0 0
185.0376122700624 0 0
185.5036598235654 0 0
185.9718079777018 0 0
186.4399561318389 0 0
186.9102142455668 0 0
187.3804723592953 0 0
187.8528502520436 0 0
188.3252281447924 0 0
188.7997352126211 0 0
189.2742422804506 0 0
189.7508880683049 0 0
190.2275338561606 0 0
190.7063279701755 0 0
191.1851220841909 0 0
191.6660745205396 0 0
192.1470269568887 0 0
192.6301469966417 0 0
193.1132670363964 0 0
193.5985648796849 0 0
194.0838627229732 0 0
194.5713478921793 0 0
195.0588330613847 0 0
195.5485154647792 0 0
196.0381978681734 0 0
196.5300873527774 0 0
197.0219768373803 0 0
197.5160837261607 0 0
198.0101906149427 0 0
198.5065243870727 0 0
199.0028581592023 0 0
199.5014290796017 0 0
$EndNodes
$Elements
3 1026 1 1026
0 1 15 1
1 1 
0 2 15 1
2 2 
1 1 1 1024
3 1 3 
4 3 4 
5 4 5 
6 5 6 
7 6 7 
8 7 8 
9 8 9 
10 9 10 
11 10 11 
12 11 12 
13 12 13 
14 13 14 
15 14 15 
16 15 16 
17 16 17 
18 17 18 
19 18 19 
20 19 20 
21 20 21 
22 21 22 
23 22 23 
24 23 24 
25 24 25 
26 25 26 
27 26 27 
28 27 28 
29 28 29 
30 29 30 
31 30 31 
32 31 32 
33 32 33 
34 33 34 
35 34 35 
36 35 36 
37 36 37 
38 37 38 
39 38 39 
40 39 40 
41 40 41 
42 41 42 
43 42 43 
44 43 44 
45 44 45 
46 45 46 
47 46 47 
48 47 48 
49 48 49 
50 49 50 
51 50 51 
52 51 52 
53 52 53 
54 53 54 
55 54 55 
56 55 56 
57 56 57 
58 57 58 
59 58 59 
60 59 60 
61 60 61 
62 61 62 
63 62 63 
64 63 64 
65 64 65 
66 65 66 
67 66 67 
68 67 68 
69 68 69 
70 69 70 
71 70 71 
72 71 72 
73 72 73 
74 73 74 
75 74 75 
76 75 76 
77 76 77 
78 77 78 
79 78 79 
80 79 80 
81 80 81 
82 81 82 
83 82 83 
84 83 84 
85 84 85 
86 85 86 
87 86 87 
88 87 88 
89 88 89 
90 89 90 
91 90 91 
92 91 92 
93 92 93 
94 93 94 
95 94 95 
96 95 96 
97 96 97 
98 97 98 
99 98 99 
100 99 100 
101 100 101 
102 101 102 
103 102 103 
104 103 104 
105 104 105 
106 105 106 
107 106 107 
108 107 108 
109 108 109 
110 109 110 
111 110 111 
112 111 112 
113 112 113 
114 113 114 
115 114 115 
116 115 116 
117 116 117 
118 117 118 
119 118 119 
120 119 120 
121 120 121 
122 121 122 
123 122 123 
124 123 124 
125 124 125 
126 125 126 
127 126 127 
128 127 128 
129 128 129 
130 129 130 
131 130 131 
132 131 132 
133 132 133 
134 133 134 
135 134 135 
136 135 136 
137 136 137 
138 137 138 
139 138 139 
140 139 140 
141 140 141 
142 141 142 
143 142 143 
144 143 144 
145 144 145 
146 145 146 
147 146 147 
148 147 148 
149 148 149 
150 149 150 
151 150 151 
152 151 152 
153 152 153 
154 153 154 
155 154 155 
156 155 156 
157 156 157 
158 157 158 
159 158 159 
160 159 160 
161 160 161 
162 161 162 
163 162 163 
164 163 164 
165 164 165 
166 165 166 
167 166 167 
168 167 168 
169 168 169 
170 169 170 
171 170 171 
172 171 172 
173 172 173 
174 173 174 
175 174 175 
176 175 176 
177 176 177 
178 177 178 
179 178 179 
180 179 180 
181 180 181 
182 181 182 
183 182 183 
184 183 184 
185 184 185 
186 185 186 
187 186 187 
188 187 188 
189 188 189 
190 189 190 
191 190 191 
192 191 192 
193 192 193 
194 193 194 
195 194 195 
196 195 196 
197 196 197 
198 197 198 
199 198 199 
200 199 200 
201 200 201 
202 201 202 
203 202 203 
204 203 204 
205 204 205 
206 205 206 
207 206 207 
208 207 208 
209 208 209 
210 209 210 
211 210 211 
212 211 212 
213 212 213 
214 213 214 
215 214 215 
216 215 216 
217 216 217 
218 217 218 
219 218 219 
220 219 220 
221 220 221 
222 221 222 
223 222 223 
224 223 224 
225 224 225 
226 225 226 
227 226 227 
228 227 228 
229 228 229 
230 229 230 
231 230 231 
232 231 232 
233 232 233 
234 233 234 
235 234 235 
236 235 236 
237 236 237 
238 237 238 
239 238 239 
240 239 240 
241 240 241 
242 241 242 
243 242 243 
244 243 244 
245 244 245 
246 245 246 
247 246 247 
248 247 248 
249 248 249 
250 249 250 
251 250 251 
252 251 252 
253 252 253 
254 253 254 
255 254 255 
256 255 256 
257 256 257 
258 257 258 
259 258 259 
260 259 260 
261 260 261 
262 261 262 
263 262 263 
264 263 264 
265 264 265 
266 265 266 
267 266 267 
268 267 268 
269 268 269 
270 269 270 
271 270 271 
272 271 272 
273 272 273 
274 273 274 
275 274 275 
276 275 276 
277 276 277 
278 277 278 
279 278 279 
280 279 280 
281 280 281 
282 281 282 
283 282 283 
284 283 284 
285 284 285 
286 285 286 
287 286 287 
288 287 288 
289 288 289 
290 289 290 
291 290 291 
292 291 292 
293 292 293 
294 293 294 
295 294 295 
296 295 296 
297 296 297 
298 297 298 
299 298 299 
300 299 300 
301 300 301 
302 301 302 
303 302 303 
304 303 304 
305 304 305 
306 305 306 
307 306 307 
308 307 308 
309 308 309 
310 309 310 
311 310 311 
312 311 312 
313 312 313 
314 313 314 
315 314 315 
316 315 316 
317 316 317 
318 317 318 
319 318 319 
320 319 320 
321 320 321 
322 321 322 
323 322 323 
324 323 324 
325 324 325 
326 325 326 
327 326 327 
328 327 328 
329 328 329 
330 329 330 
331 330 331 
332 331 332 
333 332 333 
334 333 334 
335 334 335 
336 335 336 
337 336 337 
338 337 338 
339 338 339 
340 339 340 
341 340 341 
342 341 342 
343 342 343 
344 343 344 
345 344 345 
346 345 346 
347 346 347 
348 347 348 
349 348 349 
350 349 350 
351 350 351 
352 351 352 
353 352 353 
354 353 354 
355 354 355 
356 355 356 
357 356 357 
358 357 358 
359 358 359 
360 359 360 
361 360 361 
362 361 362 
363 362 363 
364 363 364 
365 364 365 
366 365 366 
367 366 367 
368 367 368 
369 368 369 
370 369 370 
371 370 371 
372 371 372 
373 372 373 
374 373 374 
375 374 375 
376 375 376 
377 376 377 
378 377 378 
379 378 379 
380 379 380 
381 380 381 
382 381 382 
383 382 383 
384 383 384 
385 384 385 
386 385 386 
387 386 387 
388 387 388 
389 388 389 
390 389 390 
391 390 391 
392 391 392 
393 392 393 
394 393 394 
395 394 395 
396 395 396 
397 396 397 
398 397 398 
399 398 399 
400 399 400 
401 400 401 
402 401 402 
403 402 403 
404 403 404 
405 404 405 
406 405 406 
407 406 407 
408 407 408 
409 408 409 
410 409 410 
411 410 411 
412 411 412 
413 412 413 
414 413 414 
415 414 415 
416 415 416 
417 416 417 
418 417 418 
419 418 419 
420 419 420 
421 420 421 
422 421 422 
423 422 423 
424 423 424 
425 424 425 
426 425 426 
427 426 427 
428 427 428 
429 428 429 
430 429 430 
431 430 431 
432 431 432 
433 432 433 
434 433 434 
435 434 435 
436 435 436 
437 436 437 
438 437 438 
439 438 439 
440 439 440 
441 440 441 
442 441 442 
443 442 443 
444 443 444 
445 444 445 
446 445 446 
447 446 447 
448 447 448 
449 448 449 
450 449 450 
451 450 451 
452 451 452 
453 452 453 
454 453 454 
455 454 455 
456 455 456 
457 456 457 
458 457 458 
459 458 459 
460 459 460 
461 460 461 
462 461 462 
463 462 463 
464 463 464 
465 464 465 
466 465 466 
467 466 467 
468 467 468 
469 468 469 
470 469 470 
471 470 471 
472 471 472 
473 472 473 
474 473 474 
475 474 475 
476 475 476 
477 476 477 
478 477 478 
479 478 479 
480 479 480 
481 480 481 
482 481 482 
483 482 483 
484 483 484 
485 484 485 
486 485 486 
487 486 487 
488 487 488 
489 488 489 
490 489 490 
491 490 491 
492 491 492 
493 492 493 
494 493 494 
495 494 495 
496 495 496 
497 496 497 
498 497 498 
499 498 499 
500 499 500 
501 500 501 
502 501 502 
503 502 503 
504 503 504 
505 504 505 
506 505 506 
507 506 507 
508 507 508 
509 508 509 
510 509 510 
511 510 511 
512 511 512 
513 512 513 
514 513 514 
515 514 515 
516 515 516 
517 516 517 
518 517 518 
519 518 519 
520 519 520 
521 520 521 
522 521 522 
523 522 523 
524 523 524 
525 524 525 
526 525 526 
527 526 527 
528 527 528 
529 528 529 
530 529 530 
531 530 531 
532 531 532 
533 532 533 
534 533 534 
535 534 535 
536 535 536 
537 536 537 
538 537 538 
539 538 539 
540 539 540 
541 540 541 
542 541 542 
543 542 543 
544 543 544 
545 544 545 
546 545 546 
547 546 547 
548 547 548 
549 548 549 
550 549 550 
551 550 551 
552 551 552 
553 552 553 
554 553 554 
555 554 555 
556 555 556 
557 556 557 
558 557 558 
559 558 559 
560 559 560 
561 560 561 
562 561 562 
563 562 563 
564 563 564 
565 564 565 
566 565 566 
567 566 567 
568 567 568 
569 568 569 
570 569 570 
571 570 571 
572 571 572 
573 572 573 
574 573 574 
575 574 575 
576 575 576 
577 576 577 
578 577 578 
579 578 579 
580 579 580 
581 580 581 
582 581 582 
583 582 583 
584 583 584 
585 584 585 
586 585 586 
587 586 587 
588 587 588 
589 588 589 
590 589 590 
591 590 591 
592 591 592 
593 592 593 
594 593 594 
595 594 595 
596 595 596 
597 596 597 
598 597 598 
599 598 599 
600 599 600 
601 600 601 
602 601 602 
603 602 603 
604 603 604 
605 604 605 
606 605 606 
607 606 607 
608 607 608 
609 608 609 
610 609 610 
611 610 611 
612 611 612 
613 612 613 
614 613 614 
615 614 615 
616 615 616 
617 616 617 
618 617 618 
619 618 619 
620 619 620 
621 620 621 
622 621 622 
623 622 623 
624 623 624 
625 624 625 
626 625 626 
627 626 627 
628 627 628 
629 628 629 
630 629 630 
631 630 631 
632 631 632 
633 632 633 
634 633 634 
635 634 635 
636 635 636 
637 636 637 
638 637 638 
639 638 639 
640 639 640 
641 640 641 
642 641 642 
643 642 643 
644 643 644 
645 644 645 
646 645 646 
647 646 647 
648 647 648 
649 648 649 
650 649 650 
651 650 651 
652 651 652 
653 652 653 
654 653 654 
655 654 655 
656 655 656 
657 656 657 
658 657 658 
659 658 659 
660 659 660 
661 660 661 
662 661 662 
663 662 663 
664 663 664 
665 664 665 
666 665 666 
667 666 667 
668 667 668 
669 668 669 
670 669 670 
671 670 671 
672 671 672 
673 672 673 
674 673 674 
675 674 675 
676 675 676 
677 676 677 
678 677 678 
679 678 679 
680 679 680 
681 680 681 
682 681 682 
683 682 683 
684 683 684 
685 684 685 
686 685 686 
687 686 687 
688 687 688 
689 688 689 
690 689 690 
691 690 691 
692 691 692 
693 692 693 
694 693 694 
695 694 695 
696 695 696 
697 696 697 
698 697 698 
699 698 699 
700 699 700 
701 700 701 
702 701 702 
703 702 703 
704 703 704 
705 704 705 
706 705 706 
707 706 707 
708 707 708 
709 708 709 
710 709 710 
711 710 711 
712 711 712 
713 712 713 
714 713 714 
715 714 715 
716 715 716 
717 716 717 
718 717 718 
719 718 719 
720 719 720 
721 720 721 
722 721 722 
723 722 723 
724 723 724 
725 724 725 
726 725 726 
727 726 727 
728 727 728 
729 728 729 
730 729 730 
731 730 731 
732 731 732 
733 732 733 
734 733 734 
735 734 735 
736 735 736 
737 736 737 
738 737 738 
739 738 739 
740 739 740 
741 740 741 
742 741 742 
743 742 743 
744 743 744 
745 744 745 
746 745 746 
747 746 747 
748 747 748 
749 748 749 
750 749 750 
751 750 751 
752 751 752 
753 752 753 
754 753 754 
755 754 755 
756 755 756 
757 756 757 
758 757 758 
759 758 759 
760 759 760 
761 760 761 
762 761 762 
763 762 763 
764 763 764 
765 764 765 
766 765 766 
767 766 767 
768 767 768 
769 768 769 
770 769 770 
771 770 771 
772 771 772 
773 772 773 
774 773 774 
775 774 775 
776 775 776 
777 776 777 
778 777 778 
779 778 779 
780 779 780 
781 780 781 
782 781 782 
783 782 783 
784 783 784 
785 784 785 
786 785 786 
787 786 787 
788 787 788 
789 788 789 
790 789 790 
791 790 791 
792 791 792 
793 792 793 
794 793 794 
795 794 795 
796 795 796 
797 796 797 
798 797 798 
799 798 799 
800 799 800 
801 800 801 
802 801 802 
803 802 803 
804 803 804 
805 804 805 
806 805 806 
807 806 807 
808 807 808 
809 808 809 
810 809 810 
811 810 811 
812 811 812 
813 812 813 
814 813 814 
815 814 815 
816 815 816 
817 816 817 
818 817 818 
819 818 819 
820 819 820 
821 820 821 
822 821 822 
823 822 823 
824 823 824 
825 824 825 
826 825 826 
827 826 827 
828 827 828 
829 828 829 
830 829 830 
831 830 831 
832 831 832 
833 832 833 
834 833 834 
835 834 835 
836 835 836 
837 836 837 
838 837 838 
839 838 839 
840 839 840 
841 840 841 
842 841 842 
843 842 843 
844 843 844 
845 844 845 
846 845 846 
847 846 847 
848 847 848 
849 848 849 
850 849 850 
851 850 851 
852 851 852 
853 852 853 
854 853 854 
855 854 855 
856 855 856 
857 856 857 
858 857 858 
859 858 859 
860 859 860 
861 860 861 
862 861 862 
863 862 863 
864 863 864 
865 864 865 
866 865 866 
867 866 867 
868 867 868 
869 868 869 
870 869 870 
871 870 871 
872 871 872 
873 872 873 
874 873 874 
875 874 875 
876 875 876 
877 876 877 
878 877 878 
879 878 879 
880 879 880 
881 880 881 
882 881 882 
883 882 883 
884 883 884 
885 884 885 
886 885 886 
887 886 887 
888 887 888 
889 888 889 
890 889 890 
891 890 891 
892 891 892 
893 892 893 
894 893 894 
895 894 895 
896 895 896 
897 896 897 
898 897 898 
899 898 899 
900 899 900 
901 900 901 
902 901 902 
903 902 903 
904 903 904 
905 904 905 
906 905 906 
907 906 907 
908 907 908 
909 908 909 
910 909 910 
911 910 911 
912 911 912 
913 912 913 
914 913 914 
915 914 915 
916 915 916 
917 916 917 
918 917 918 
919 918 919 
920 919 920 
921 920 921 
922 921 922 
923 922 923 
924 923 924 
925 924 925 
926 925 926 
927 926 927 
928 927 928 
929 928 929 
930 929 930 
931 930 931 
932 931 932 
933 932 933 
934 933 934 
935 934 935 
936 935 936 
937 936 937 
938 937 938 
939 938 939 
940 939 940 
941 940 941 
942 941 942 
943 942 943 
944 943 944 
945 944 945 
946 945 946 
947 946 947 
948 947 948 
949 948 949 
950 949 950 
951 950 951 
952 951 952 
953 952 953 
954 953 954 
955 954 955 
956 955 956 
957 956 957 
958 957 958 
959 958 959 
960 959 960 
961 960 961 
962 961 962 
963 962 963 
964 963 964 
965 964 965 
966 965 966 
967 966 967 
968 967 968 
969 968 969 
970 969 970 
971 970 971 
972 971 972 
973 972 973 
974 973 974 
975 974 975 
976 975 976 
977 976 977 
978 977 978 
979 978 979 
980 979 980 
981 980 981 
982 981 982 
983 982 983 
984 983 984 
985 984 985 
986 985 986 
987 986 987 
988 987 988 
989 988 989 
990 989 990 
991 990 991 
992 991 992 
993 992 993 
994 993 994 
995 994 995 
996 995 996 
997 996 997 
998 997 998 
999 998 999 
1000 999 1000 
1001 1000 1001 
1002 1001 1002 
1003 1002 1003 
1004 1003 1004 
1005 1004 1005 
1006 1005 1006 
1007 1006 1007 
1008 1007 1008 
1009 1008 1009 
1010 1009 1010 
1011 1010 1011 
1012 1011 1012 
1013 1012 1013 
1014 1013 1014 
1015 1014 1015 
1016 1015 1016 
1017 1016 1017 
1018 1017 1018 
1019 1018 1019 
1020 1019 1020 
1021 1020 1021 
1022 1021 1022 
1023 1022 1023 
1024 1023 1024 
1025 1024 1025 
1026 1025 2 
$EndElements
