$MeshFormat
4.1 0 8
$EndMeshFormat
$PhysicalNames
3
0 2 "center"
0 3 "ext"
1 4 "line"
$EndPhysicalNames
$Entities
2 1 0 0
1 0 0 0 1 2 
2 200 0 0 1 3 
1 0 0 0 200 0 0 1 4 2 1 -2 
$EndEntities
$Nodes
3 513 1 513
0 1 0 1
1
0 0 0
0 2 0 1
2
200 0 0
1 1 0 511
3
4
5
6
7
8
9
10
11
12
13
14
15
16
17
18
19
20
21
22
23
24
25
26
27
28
29
30
31
32
33
34
35
36
37
38
39
40
41
42
43
44
45
46
47
48
49
50
51
52
53
54
55
56
57
58
59
60
61
62
63
64
65
66
67
68
69
70
71
72
73
74
75
76
77
78
79
80
81
82
83
84
85
86
87
88
89
90
91
92
93
94
95
96
97
98
99
100
101
102
103
104
105
106
107
108
109
110
111
112
113
114
115
116
117
118
119
120
121
122
123
124
125
126
127
128
129
130
131
132
133
134
135
136
137
138
139
140
141
142
143
144
145
146
147
148
149
150
151
152
153
154
155
156
157
158
159
160
161
162
163
164
165
166
167
168
169
170
171
172
173
174
175
176
177
178
179
180
181
182
183
184
185
186
187
188
189
190
191
192
193
194
195
196
197
198
199
200
201
202
203
204
205
206
207
208
209
210
211
212
213
214
215
216
217
218
219
220
221
222
223
224
225
226
227
228
229
230
231
232
233
234
235
236
237
238
239
240
241
242
243
244
245
246
247
248
249
250
251
252
253
254
255
256
257
258
259
260
261
262
263
264
265
266
267
268
269
270
271
272
273
274
275
276
277
278
279
280
281
282
283
284
285
286
287
288
289
290
291
292
293
294
295
296
297
298
299
300
301
302
303
304
305
306
307
308
309
310
311
312
313
314
315
316
317
318
319
320
321
322
323
324
325
326
327
328
329
330
331
332
333
334
335
336
337
338
339
340
341
342
343
344
345
346
347
348
349
350
351
352
353
354
355
356
357
358
359
360
361
362
363
364
365
366
367
368
369
370
371
372
373
374
375
376
377
378
379
380
381
382
383
384
385
386
387
388
389
390
391
392
393
394
395
396
397
398
399
400
401
402
403
404
405
406
407
408
409
410
411
412
413
414
415
416
417
418
419
420
421
422
423
424
425
426
427
428
429
430
431
432
433
434
435
436
437
438
439
440
441
442
443
444
445
446
447
448
449
450
451
452
453
454
455
456
457
458
459
460
461
462
463
464
465
466
467
468
469
470
471
472
473
474
475
476
477
478
479
480
481
482
483
484
485
486
487
488
489
490
491
492
493
494
495
496
497
498
499
500
501
502
503
504
505
506
507
508
509
510
511
512
513
0.1001636806057769 0 0
0.2007788084326619 0 0
0.3018474242709294 0 0
0.4033716234378318 0 0
0.5053534356320146 0 0
0.6077948757810225 0 0
0.7106980720864958 0 0
0.8140651135347192 0 0
0.917898048686849 0 0
1.022198973312966 0 0
1.126970078366847 0 0
1.232213387186887 0 0
1.337931084609286 0 0
1.444125262031039 0 0
1.550798104839153 0 0
1.65795177878351 0 0
1.765588430240366 0 0
1.87371018647115 0 0
1.982319373818047 0 0
2.09141805330913 0 0
2.201008478191912 0 0
2.311092881442777 0 0
2.421673476039317 0 0
2.532752455227787 0 0
2.64433217809033 0 0
2.756414781696617 0 0
2.86900258376386 0 0
2.982097881149746 0 0
3.09570295013278 0 0
3.209820046687629 0 0
3.324451536637637 0 0
3.439599673343273 0 0
3.555266839259421 0 0
3.671455380752033 0 0
3.788167645102788 0 0
3.905405944074388 0 0
4.023172683692557 0 0
4.141470212770322 0 0
4.260300967762793 0 0
4.379667363226105 0 0
4.499571792111335 0 0
4.620016626053196 0 0
4.741004399520668 0 0
4.862537479662361 0 0
4.984618357240712 0 0
5.10724950066742 0 0
5.230433356302947 0 0
5.354172502497574 0 0
5.478469341661896 0 0
5.603326438048998 0 0
5.728746332851596 0 0
5.854731544511711 0 0
5.981284569024837 0 0
6.108408078519494 0 0
6.23610454983476 0 0
6.364376594766501 0 0
6.49322680168945 0 0
6.622657772192031 0 0
6.752672169799485 0 0
6.883272580264864 0 0
7.014461646888645 0 0
7.146242025238009 0 0
7.278616365145024 0 0
7.411587418710179 0 0
7.545157793724509 0 0
7.679330216833331 0 0
7.814107408028645 0 0
7.949492062982705 0 0
8.085486992382757 0 0
8.222094865309257 0 0
8.359318488606906 0 0
8.497160643912153 0 0
8.635624087991346 0 0
8.774711642459984 0 0
8.914426093639962 0 0
9.054770307760728 0 0
9.195747125323514 0 0
9.337359361446181 0 0
9.479609888036736 0 0
9.622501576685814 0 0
9.766037350202811 0 0
9.910220105186522 0 0
10.05505271237615 0 0
10.2005381641641 0 0
10.34667935377187 0 0
10.49347925780749 0 0
10.64094082622324 0 0
10.78906708465871 0 0
10.93786097216936 0 0
11.0873255432821 0 0
11.23746382509928 0 0
11.38827881766639 0 0
11.53977359170964 0 0
11.69195119677752 0 0
11.8448147355609 0 0
11.99836728295664 0 0
12.15261193192146 0 0
12.30755181958657 0 0
12.46319008898265 0 0
12.61952988758302 0 0
12.77657436815537 0 0
12.9343266906485 0 0
13.09279005818205 0 0
13.2519676894723 0 0
13.41186277443809 0 0
13.57247858640777 0 0
13.73381833658084 0 0
13.89588531257686 0 0
14.05868277257032 0 0
14.22221403131502 0 0
14.38648236949016 0 0
14.55149114139714 0 0
14.71724367127428 0 0
14.88374339190293 0 0
15.05099339151686 0 0
15.21899745338575 0 0
15.38775859966771 0 0
15.55728046857386 0 0
15.72756648278779 0 0
15.89861999497763 0 0
16.07044445571482 0 0
16.24304353680933 0 0
16.41642051397299 0 0
16.59057892003404 0 0
16.765522331402 0 0
16.94125434806368 0 0
17.11777840978987 0 0
17.29509811605148 0 0
17.47321703407366 0 0
17.6521388173728 0 0
17.83186714869112 0 0
18.01240546466093 0 0
18.19375758068076 0 0
18.37592716323182 0 0
18.55891781296653 0 0
18.74273323813597 0 0
18.92737716948933 0 0
19.11285348794454 0 0
19.29916562922337 0 0
19.48631774066021 0 0
19.67431332853392 0 0
19.86315626927117 0 0
20.05285040444333 0 0
20.24339954123449 0 0
20.43480748683456 0 0
20.62707834914783 0 0
20.82021571125849 0 0
21.01422360433034 0 0
21.20910604076537 0 0
21.40486682940744 0 0
21.6015100656366 0 0
21.79903962834145 0 0
21.99745941044862 0 0
22.19677368204372 0 0
22.39698629539157 0 0
22.59810131976011 0 0
22.80012284106391 0 0
23.0030549086585 0 0
23.20690171522426 0 0
23.41166732689649 0 0
23.61735591734507 0 0
23.82397157952617 0 0
24.0315185472828 0 0
24.24000101646777 0 0
24.44942314545282 0 0
24.65978926211948 0 0
24.87110352931643 0 0
25.08337034932559 0 0
25.2965938919584 0 0
25.51077849416891 0 0
25.72592845409057 0 0
25.94204829854181 0 0
26.15914215229159 0 0
26.37721464216575 0 0
26.59627001322139 0 0
26.81631273688486 0 0
27.0373472445115 0 0
27.25937806079812 0 0
27.48240967807483 0 0
27.70644657407485 0 0
27.93149325691122 0 0
28.15755432577936 0 0
28.38463433864286 0 0
28.61273781278543 0 0
28.8418695550325 0 0
29.0720339755685 0 0
29.30323583750902 0 0
29.53547986109076 0 0
29.76877072424789 0 0
30.00311306317825 0 0
30.23851167012887 0 0
30.47497124203045 0 0
30.71249670274812 0 0
30.95109275058431 0 0
31.19076431309371 0 0
31.43151609343611 0 0
31.67335304838313 0 0
31.91628000473047 0 0
32.16030194950807 0 0
32.40542382497053 0 0
32.6516505291973 0 0
32.89898703159415 0 0
33.14743838851944 0 0
33.39700964103848 0 0
33.64770576321096 0 0
33.8995318643303 0 0
34.15249310485613 0 0
34.40659444718297 0 0
34.66184110463031 0 0
34.91823829851619 0 0
35.17579121877774 0 0
35.43450499870755 0 0
35.69438483658138 0 0
35.95543605442417 0 0
36.21766396155229 0 0
36.48107380510967 0 0
36.74567100213901 0 0
37.01146071233956 0 0
37.27844855047071 0 0
37.5466397529861 0 0
37.81603976642944 0 0
38.08665406113342 0 0
38.35848817189177 0 0
38.63154750382173 0 0
38.90583760474479 0 0
39.18136404449287 0 0
39.45813234306985 0 0
39.7361481940921 0 0
40.0154171009203 0 0
40.29594480265126 0 0
40.57773698683609 0 0
40.86079929017152 0 0
41.1451374281089 0 0
41.43075715400245 0 0
41.71766432008922 0 0
42.00586472609621 0 0
42.29536411994398 0 0
42.58616838112683 0 0
42.87828338387117 0 0
43.17171508798334 0 0
43.46646939986982 0 0
43.76255220517856 0 0
44.05996965131573 0 0
44.35872764104533 0 0
44.65883220431165 0 0
44.96028951169816 0 0
45.2631055293936 0 0
45.56728651270402 0 0
45.87283851180046 0 0
46.17976773481781 0 0
46.48808046119552 0 0
46.79778282011945 0 0
47.10888112085549 0 0
47.42138166628712 0 0
47.73529070295456 0 0
48.0506147466237 0 0
48.36736002318932 0 0
48.68553297777257 0 0
49.00513999891457 0 0
49.32618772751358 0 0
49.64868247462774 0 0
49.97263082209128 0 0
50.29803929386274 0 0
50.62491455308943 0 0
50.95326311098101 0 0
51.28309168386905 0 0
51.61440692785576 0 0
51.94721569792416 0 0
52.28152420652074 0 0
52.61733988215184 0 0
52.95466885011065 0 0
53.29351859179157 0 0
53.63389559696336 0 0
53.97580674484082 0 0
54.31925894420272 0 0
54.66425922838891 0 0
55.01081476235436 0 0
55.35893195341342 0 0
55.70861868792281 0 0
56.05988138817053 0 0
56.41272731917464 0 0
56.76716368759484 0 0
57.12319763549589 0 0
57.48083624121237 0 0
57.84008700395534 0 0
58.20095694969844 0 0
58.56345360656405 0 0
58.92758405050624 0 0
59.29335577300753 0 0
59.66077619824017 0 0
60.02985268396927 0 0
60.40059255227151 0 0
60.77300388291292 0 0
61.14709349905881 0 0
61.52286928513669 0 0
61.90033897338238 0 0
62.27950995321705 0 0
62.6603900930889 0 0
63.04298705783196 0 0
63.42730822410272 0 0
63.81336203564349 0 0
64.20115574036805 0 0
64.59069735454244 0 0
64.98199482229356 0 0
65.37505601657939 0 0
65.76988874014108 0 0
66.16650133298259 0 0
66.56490131346909 0 0
66.96509736031798 0 0
67.3670971229845 0 0
67.77090878322085 0 0
68.17654048611443 0 0
68.58400081673209 0 0
68.99329739482918 0 0
69.40443910758212 0 0
69.81743385124361 0 0
70.23229010350794 0 0
70.64901626595473 0 0
71.06762066506909 0 0
71.48811204003174 0 0
71.91049854726664 0 0
72.33478911680447 0 0
72.76099202453253 0 0
73.18911595429273 0 0
73.61916951215336 0 0
74.05116164714083 0 0
74.48510081651824 0 0
74.92099602409093 0 0
75.35885588435953 0 0
75.79868935014612 0 0
76.24050529399699 0 0
76.68431250925771 0 0
77.13012046024573 0 0
77.57793758229791 0 0
78.02777316751001 0 0
78.47963642425377 0 0
78.93353647830314 0 0
79.38948237394079 0 0
79.84748322953293 0 0
80.30754862071217 0 0
80.76968768960995 0 0
81.233909734427 0 0
81.70022412308349 0 0
82.16864050389539 0 0
82.63916812433671 0 0
83.11181666958967 0 0
83.58659554485426 0 0
84.06351443144867 0 0
84.54258292396167 0 0
85.02381074061996 0 0
85.50720771645297 0 0
85.99278353972259 0 0
86.48054798756429 0 0
86.97051095660504 0 0
87.46268225495933 0 0
87.9570722030216 0 0
88.45369032315965 0 0
88.95254690569377 0 0
89.45365210893873 0 0
89.95701605906913 0 0
90.46264875272027 0 0
90.97056051337255 0 0
91.48076153646225 0 0
91.99326229241716 0 0
92.50807315766849 0 0
93.02520441591044 0 0
93.54466648983467 0 0
94.06646997548617 0 0
94.59062550063206 0 0
95.11714348227758 0 0
95.64603488121946 0 0
96.17730999382626 0 0
96.71097988485566 0 0
97.2470551499312 0 0
97.7855466942905 0 0
98.32646532555437 0 0
98.86982226674471 0 0
99.4156281383471 0 0
99.96389419335108 0 0
100.5146315835693 0 0
101.0678513609953 0 0
101.6235644820285 0 0
102.1817826707094 0 0
102.7425168502719 0 0
103.3057784072863 0 0
103.8715788180761 0 0
104.4399295492917 0 0
105.0108420320476 0 0
105.5843277965657 0 0
106.1603984566162 0 0
106.7390655964053 0 0
107.3203411856726 0 0
107.9042367237744 0 0
108.4907640705322 0 0
109.079935053014 0 0
109.6717617437695 0 0
110.2662558580626 0 0
110.8634297178057 0 0
111.4632952310043 0 0
112.0658646528196 0 0
112.6711498501852 0 0
113.2791634810356 0 0
113.889917570894 0 0
114.5034245574648 0 0
115.1196969226848 0 0
115.7387469673854 0 0
116.3605872947282 0 0
116.9852305248283 0 0
117.6126891649214 0 0
118.2429761037413 0 0
118.8761039027317 0 0
119.5120854665447 0 0
120.1509335842439 0 0
120.7926612796955 0 0
121.4372814009332 0 0
122.0848071283168 0 0
122.7352515240254 0 0
123.3886275336386 0 0
124.0449487642128 0 0
124.7042281801476 0 0
125.3664791323382 0 0
126.0317155436726 0 0
126.6999501209108 0 0
127.3711963439562 0 0
128.0454685318354 0 0
128.7227798605747 0 0
129.4031439194663 0 0
130.0865746656599 0 0
130.7730859310219 0 0
131.4626914238147 0 0
132.1554050600168 0 0
132.8512415722778 0 0
133.5502140153868 0 0
134.2523368440534 0 0
134.9576248542587 0 0
135.6660916488822 0 0
136.3777516536671 0 0
137.0926198486452 0 0
137.8107098373293 0 0
138.532036549533 0 0
139.2566142655084 0 0
139.9844584453067 0 0
140.7155830816917 0 0
141.4500030418442 0 0
142.1877330944901 0 0
142.92878904942 0 0
143.6731846185774 0 0
144.4209358655266 0 0
145.1720571617552 0 0
145.9265640477433 0 0
146.6844719240808 0 0
147.4457960533496 0 0
148.2105515619689 0 0
148.9787540330294 0 0
149.7504192467135 0 0
150.5255627115015 0 0
151.304199888089 0 0
152.086346683656 0 0
152.8720188627895 0 0
153.6612320493933 0 0
154.4540031993697 0 0
155.25034697133 0 0
156.0502806461453 0 0
156.8538198303372 0 0
157.660980724236 0 0
158.4717795769745 0 0
159.2862336346368 0 0
160.1043581575329 0 0
160.9261706926663 0 0
161.7516871733175 0 0
162.5809245739239 0 0
163.4138997164369 0 0
164.2506292723681 0 0
165.0911301870163 0 0
165.9354198347482 0 0
166.7835149308005 0 0
167.6354325974691 0 0
168.491190221345 0 0
169.3508050332181 0 0
170.2142941101619 0 0
171.081675936111 0 0
171.9529668691707 0 0
172.8281849969574 0 0
173.7073482440881 0 0
174.5904743743739 0 0
175.477580992973 0 0
176.3686857326865 0 0
177.2638075031018 0 0
178.162963771222 0 0
179.0661727931095 0 0
179.9734528434926 0 0
180.8848221579824 0 0
181.8002998928102 0 0
182.7199035906433 0 0
183.6436522237739 0 0
184.5715647165596 0 0
185.5036598235654 0 0
186.4399561318389 0 0
187.3804723592953 0 0
188.3252281447924 0 0
189.2742422804506 0 0
190.2275338561606 0 0
191.1851220841909 0 0
192.1470269568887 0 0
193.1132670363964 0 0
194.0838627229732 0 0
195.0588330613847 0 0
196.0381978681734 0 0
197.0219768373803 0 0
198.0101906149427 0 0
199.0028581592023 0 0
$EndNodes
$Elements
3 514 1 514
0 1 15 1
1 1 
0 2 15 1
2 2 
1 1 1 512
3 1 3 
4 3 4 
5 4 5 
6 5 6 
7 6 7 
8 7 8 
9 8 9 
10 9 10 
11 10 11 
12 11 12 
13 12 13 
14 13 14 
15 14 15 
16 15 16 
17 16 17 
18 17 18 
19 18 19 
20 19 20 
21 20 21 
22 21 22 
23 22 23 
24 23 24 
25 24 25 
26 25 26 
27 26 27 
28 27 28 
29 28 29 
30 29 30 
31 30 31 
32 31 32 
33 32 33 
34 33 34 
35 34 35 
36 35 36 
37 36 37 
38 37 38 
39 38 39 
40 39 40 
41 40 41 
42 41 42 
43 42 43 
44 43 44 
45 44 45 
46 45 46 
47 46 47 
48 47 48 
49 48 49 
50 49 50 
51 50 51 
52 51 52 
53 52 53 
54 53 54 
55 54 55 
56 55 56 
57 56 57 
58 57 58 
59 58 59 
60 59 60 
61 60 61 
62 61 62 
63 62 63 
64 63 64 
65 64 65 
66 65 66 
67 66 67 
68 67 68 
69 68 69 
70 69 70 
71 70 71 
72 71 72 
73 72 73 
74 73 74 
75 74 75 
76 75 76 
77 76 77 
78 77 78 
79 78 79 
80 79 80 
81 80 81 
82 81 82 
83 82 83 
84 83 84 
85 84 85 
86 85 86 
87 86 87 
88 87 88 
89 88 89 
90 89 90 
91 90 91 
92 91 92 
93 92 93 
94 93 94 
95 94 95 
96 95 96 
97 96 97 
98 97 98 
99 98 99 
100 99 100 
101 100 101 
102 101 102 
103 102 103 
104 103 104 
105 104 105 
106 105 106 
107 106 107 
108 107 108 
109 108 109 
110 109 110 
111 110 111 
112 111 112 
113 112 113 
114 113 114 
115 114 115 
116 115 116 
117 116 117 
118 117 118 
119 118 119 
120 119 120 
121 120 121 
122 121 122 
123 122 123 
124 123 124 
125 124 125 
126 125 126 
127 126 127 
128 127 128 
129 128 129 
130 129 130 
131 130 131 
132 131 132 
133 132 133 
134 133 134 
135 134 135 
136 135 136 
137 136 137 
138 137 138 
139 138 139 
140 139 140 
141 140 141 
142 141 142 
143 142 143 
144 143 144 
145 144 145 
146 145 146 
147 146 147 
148 147 148 
149 148 149 
150 149 150 
151 150 151 
152 151 152 
153 152 153 
154 153 154 
155 154 155 
156 155 156 
157 156 157 
158 157 158 
159 158 159 
160 159 160 
161 160 161 
162 161 162 
163 162 163 
164 163 164 
165 164 165 
166 165 166 
167 166 167 
168 167 168 
169 168 169 
170 169 170 
171 170 171 
172 171 172 
173 172 173 
174 173 174 
175 174 175 
176 175 176 
177 176 177 
178 177 178 
179 178 179 
180 179 180 
181 180 181 
182 181 182 
183 182 183 
184 183 184 
185 184 185 
186 185 186 
187 186 187 
188 187 188 
189 188 189 
190 189 190 
191 190 191 
192 191 192 
193 192 193 
194 193 194 
195 194 195 
196 195 196 
197 196 197 
198 197 198 
199 198 199 
200 199 200 
201 200 201 
202 201 202 
203 202 203 
204 203 204 
205 204 205 
206 205 206 
207 206 207 
208 207 208 
209 208 209 
210 209 210 
211 210 211 
212 211 212 
213 212 213 
214 213 214 
215 214 215 
216 215 216 
217 216 217 
218 217 218 
219 218 219 
220 219 220 
221 220 221 
222 221 222 
223 222 223 
224 223 224 
225 224 225 
226 225 226 
227 226 227 
228 227 228 
229 228 229 
230 229 230 
231 230 231 
232 231 232 
233 232 233 
234 233 234 
235 234 235 
236 235 236 
237 236 237 
238 237 238 
239 238 239 
240 239 240 
241 240 241 
242 241 242 
243 242 243 
244 243 244 
245 244 245 
246 245 246 
247 246 247 
248 247 248 
249 248 249 
250 249 250 
251 250 251 
252 251 252 
253 252 253 
254 253 254 
255 254 255 
256 255 256 
257 256 257 
258 257 258 
259 258 259 
260 259 260 
261 260 261 
262 261 262 
263 262 263 
264 263 264 
265 264 265 
266 265 266 
267 266 267 
268 267 268 
269 268 269 
270 269 270 
271 270 271 
272 271 272 
273 272 273 
274 273 274 
275 274 275 
276 275 276 
277 276 277 
278 277 278 
279 278 279 
280 279 280 
281 280 281 
282 281 282 
283 282 283 
284 283 284 
285 284 285 
286 285 286 
287 286 287 
288 287 288 
289 288 289 
290 289 290 
291 290 291 
292 291 292 
293 292 293 
294 293 294 
295 294 295 
296 295 296 
297 296 297 
298 297 298 
299 298 299 
300 299 300 
301 300 301 
302 301 302 
303 302 303 
304 303 304 
305 304 305 
306 305 306 
307 306 307 
308 307 308 
309 308 309 
310 309 310 
311 310 311 
312 311 312 
313 312 313 
314 313 314 
315 314 315 
316 315 316 
317 316 317 
318 317 318 
319 318 319 
320 319 320 
321 320 321 
322 321 322 
323 322 323 
324 323 324 
325 324 325 
326 325 326 
327 326 327 
328 327 328 
329 328 329 
330 329 330 
331 330 331 
332 331 332 
333 332 333 
334 333 334 
335 334 335 
336 335 336 
337 336 337 
338 337 338 
339 338 339 
340 339 340 
341 340 341 
342 341 342 
343 342 343 
344 343 344 
345 344 345 
346 345 346 
347 346 347 
348 347 348 
349 348 349 
350 349 350 
351 350 351 
352 351 352 
353 352 353 
354 353 354 
355 354 355 
356 355 356 
357 356 357 
358 357 358 
359 358 359 
360 359 360 
361 360 361 
362 361 362 
363 362 363 
364 363 364 
365 364 365 
366 365 366 
367 366 367 
368 367 368 
369 368 369 
370 369 370 
371 370 371 
372 371 372 
373 372 373 
374 373 374 
375 374 375 
376 375 376 
377 376 377 
378 377 378 
379 378 379 
380 379 380 
381 380 381 
382 381 382 
383 382 383 
384 383 384 
385 384 385 
386 385 386 
387 386 387 
388 387 388 
389 388 389 
390 389 390 
391 390 391 
392 391 392 
393 392 393 
394 393 394 
395 394 395 
396 395 396 
397 396 397 
398 397 398 
399 398 399 
400 399 400 
401 400 401 
402 401 402 
403 402 403 
404 403 404 
405 404 405 
406 405 406 
407 406 407 
408 407 408 
409 408 409 
410 409 410 
411 410 411 
412 411 412 
413 412 413 
414 413 414 
415 414 415 
416 415 416 
417 416 417 
418 417 418 
419 418 419 
420 419 420 
421 420 421 
422 421 422 
423 422 423 
424 423 424 
425 424 425 
426 425 426 
427 426 427 
428 427 428 
429 428 429 
430 429 430 
431 430 431 
432 431 432 
433 432 433 
434 433 434 
435 434 435 
436 435 436 
437 436 437 
438 437 438 
439 438 439 
440 439 440 
441 440 441 
442 441 442 
443 442 443 
444 443 444 
445 444 445 
446 445 446 
447 446 447 
448 447 448 
449 448 449 
450 449 450 
451 450 451 
452 451 452 
453 452 453 
454 453 454 
455 454 455 
456 455 456 
457 456 457 
458 457 458 
459 458 459 
460 459 460 
461 460 461 
462 461 462 
463 462 463 
464 463 464 
465 464 465 
466 465 466 
467 466 467 
468 467 468 
469 468 469 
470 469 470 
471 470 471 
472 471 472 
473 472 473 
474 473 474 
475 474 475 
476 475 476 
477 476 477 
478 477 478 
479 478 479 
480 479 480 
481 480 481 
482 481 482 
483 482 483 
484 483 484 
485 484 485 
486 485 486 
487 486 487 
488 487 488 
489 488 489 
490 489 490 
491 490 491 
492 491 492 
493 492 493 
494 493 494 
495 494 495 
496 495 496 
497 496 497 
498 497 498 
499 498 499 
500 499 500 
501 500 501 
502 501 502 
503 502 503 
504 503 504 
505 504 505 
506 505 506 
507 506 507 
508 507 508 
509 508 509 
510 509 510 
511 510 511 
512 511 512 
513 512 513 
514 513 2 
$EndElements
